Well screens for Regional Model July 2016

List of mesh nodes in each screen interval and accuracy of well tops.
Source well screen data extracted from mysql June 28 2016:
/scratch/er/tam/er_well_data/mysql_data/screen_zones_m_ft_28jun2016_adj.dat

These numbers are for FEHM Mesh 
  /scratch/er/tam/er_monitoring_2016/FEHM_stack_omr_wells_v2

------------------------------------------------
List of nodes and length in each screen interval

 O-1 #1   2010001  1639.52  445.01
  2010001     522456      1635.76    3.76 
  2010001     505040      1623.76   15.76 
  2010001     487624      1611.76   27.76 
  2010001     470208      1599.76   39.76 
  2010001     452792      1587.76   51.76 
  2010001     435376      1575.76   63.76 
  2010001     417960      1563.76   75.76 
  2010001     400544      1551.76   87.76 
  2010001     383128      1539.76   99.76 
  2010001     365712      1527.76  111.76 
  2010001     348296      1515.76  123.76 
  2010001     330880      1503.76  135.76 
  2010001     313464      1491.76  147.76 
  2010001     296048      1467.76  171.76 
  2010001     278632      1443.76  195.76 
  2010001     261216      1419.76  219.76 
  2010001     243800      1395.76  243.76 
  2010001     226384      1371.76  267.76 
  2010001     208968      1340.78  298.74 
  2010001     191552      1309.80  329.72 
  2010001     174136      1278.82  360.70 
  2010001     156720      1247.84  391.68 
  2010001     139304      1216.86  422.66 
  2010001     121888      1185.88  453.64 
  2010001 Total nodes  24 Zlength  453.64 

O-4 #1   2010004  1680.06  451.41
  2010004     539873      1680.41    0.35 
  2010004     522457      1668.41   11.65 
  2010004     505041      1656.41   23.65 
  2010004     487625      1644.41   35.65 
  2010004     470209      1632.41   47.65 
  2010004     452793      1620.41   59.65 
  2010004     435377      1608.41   71.65 
  2010004     417961      1596.41   83.65 
  2010004     400545      1584.41   95.65 
  2010004     383129      1572.41  107.65 
  2010004     365713      1560.41  119.65 
  2010004     348297      1548.41  131.65 
  2010004     330881      1536.41  143.65 
  2010004     313465      1524.41  155.65 
  2010004     296049      1500.41  179.65 
  2010004     278633      1476.41  203.65 
  2010004     261217      1452.41  227.65 
  2010004     243801      1428.41  251.65 
  2010004     226385      1404.41  275.65 
  2010004     208969      1370.71  309.35 
  2010004     191553      1337.01  343.05 
  2010004     174137      1303.31  376.75 
  2010004     156721      1269.61  410.45 
  2010004     139305      1235.91  444.15 
  2010004 Total nodes  24 Zlength  444.15 

PM-1 #1   2020001  1699.26  467.56
  2020001     609538      1700.41    1.15 
  2020001     592122      1688.41   10.85 
  2020001     574706      1676.41   22.85 
  2020001     557290      1664.41   34.85 
  2020001     539874      1652.41   46.85 
  2020001     522458      1640.41   58.85 
  2020001     505042      1628.41   70.85 
  2020001     487626      1616.41   82.85 
  2020001     470210      1604.41   94.85 
  2020001     452794      1592.41  106.85 
  2020001     435378      1580.41  118.85 
  2020001     417962      1568.41  130.85 
  2020001     400546      1556.41  142.85 
  2020001     383130      1544.41  154.85 
  2020001     365714      1532.41  166.85 
  2020001     348298      1520.41  178.85 
  2020001     330882      1508.41  190.85 
  2020001     313466      1496.41  202.85 
  2020001     296050      1472.41  226.85 
  2020001     278634      1448.41  250.85 
  2020001     261218      1424.41  274.85 
  2020001     243802      1400.41  298.85 
  2020001     226386      1376.41  322.85 
  2020001     208970      1345.04  354.22 
  2020001     191554      1313.67  385.59 
  2020001     174138      1282.31  416.95 
  2020001     156722      1250.94  448.32 
  2020001     139306      1219.57  479.69 
  2020001 Total nodes  28 Zlength  479.69 

PM-2 #1   2020002  1740.71  388.92
  2020002     626955      1738.69    2.02 
  2020002     609539      1732.69    8.02 
  2020002     592123      1720.69   20.02 
  2020002     574707      1708.69   32.02 
  2020002     557291      1696.69   44.02 
  2020002     539875      1684.69   56.02 
  2020002     522459      1672.69   68.02 
  2020002     505043      1660.69   80.02 
  2020002     487627      1648.69   92.02 
  2020002     470211      1636.69  104.02 
  2020002     452795      1624.69  116.02 
  2020002     435379      1612.69  128.02 
  2020002     417963      1600.69  140.02 
  2020002     400547      1588.69  152.02 
  2020002     383131      1576.69  164.02 
  2020002     365715      1564.69  176.02 
  2020002     348299      1552.69  188.02 
  2020002     330883      1540.69  200.02 
  2020002     313467      1528.69  212.02 
  2020002     296051      1504.69  236.02 
  2020002     278635      1480.69  260.02 
  2020002     261219      1456.69  284.02 
  2020002     243803      1432.69  308.02 
  2020002     226387      1408.69  332.02 
  2020002     208971      1374.63  366.08 
  2020002     191555      1340.57  400.14 
  2020002 Total nodes  26 Zlength  400.14 

PM-3 #1   2020003  1723.34  480.37
  2020003     626956      1723.87    0.53 
  2020003     609540      1717.87    5.47 
  2020003     592124      1705.87   17.47 
  2020003     574708      1693.87   29.47 
  2020003     557292      1681.87   41.47 
  2020003     539876      1669.87   53.47 
  2020003     522460      1657.87   65.47 
  2020003     505044      1645.87   77.47 
  2020003     487628      1633.87   89.47 
  2020003     470212      1621.87  101.47 
  2020003     452796      1609.87  113.47 
  2020003     435380      1597.87  125.47 
  2020003     417964      1585.87  137.47 
  2020003     400548      1573.87  149.47 
  2020003     383132      1561.87  161.47 
  2020003     365716      1549.87  173.47 
  2020003     348300      1537.87  185.47 
  2020003     330884      1525.87  197.47 
  2020003     313468      1513.87  209.47 
  2020003     296052      1489.87  233.47 
  2020003     278636      1465.87  257.47 
  2020003     261220      1441.87  281.47 
  2020003     243804      1417.87  305.47 
  2020003     226388      1393.87  329.47 
  2020003     208972      1361.05  362.29 
  2020003     191556      1328.23  395.11 
  2020003     174140      1295.40  427.94 
  2020003     156724      1262.58  460.76 
  2020003     139308      1229.76  493.58 
  2020003 Total nodes  29 Zlength  493.58 

PM-4 #1   2020004  1725.17  485.85
  2020004     609541      1730.76    5.59 
  2020004     592125      1718.76    6.41 
  2020004     574709      1706.76   18.41 
  2020004     557293      1694.76   30.41 
  2020004     539877      1682.76   42.41 
  2020004     522461      1670.76   54.41 
  2020004     505045      1658.76   66.41 
  2020004     487629      1646.76   78.41 
  2020004     470213      1634.76   90.41 
  2020004     452797      1622.76  102.41 
  2020004     435381      1610.76  114.41 
  2020004     417965      1598.76  126.41 
  2020004     400549      1586.76  138.41 
  2020004     383133      1574.76  150.41 
  2020004     365717      1562.76  162.41 
  2020004     348301      1550.76  174.41 
  2020004     330885      1538.76  186.41 
  2020004     313469      1526.76  198.41 
  2020004     296053      1502.76  222.41 
  2020004     278637      1478.76  246.41 
  2020004     261221      1454.76  270.41 
  2020004     243805      1430.76  294.41 
  2020004     226389      1406.76  318.41 
  2020004     208973      1372.87  352.30 
  2020004     191557      1338.97  386.20 
  2020004     174141      1305.07  420.10 
  2020004     156725      1271.18  453.99 
  2020004     139309      1237.28  487.89 
  2020004 Total nodes  28 Zlength  487.89 

PM-5 #1   2020005  1723.64  497.43
  2020005     592126      1724.44    0.80 
  2020005     574710      1712.44   11.20 
  2020005     557294      1700.44   23.20 
  2020005     539878      1688.44   35.20 
  2020005     522462      1676.44   47.20 
  2020005     505046      1664.44   59.20 
  2020005     487630      1652.44   71.20 
  2020005     470214      1640.44   83.20 
  2020005     452798      1628.44   95.20 
  2020005     435382      1616.44  107.20 
  2020005     417966      1604.44  119.20 
  2020005     400550      1592.44  131.20 
  2020005     383134      1580.44  143.20 
  2020005     365718      1568.44  155.20 
  2020005     348302      1556.44  167.20 
  2020005     330886      1544.44  179.20 
  2020005     313470      1532.44  191.20 
  2020005     296054      1508.44  215.20 
  2020005     278638      1484.44  239.20 
  2020005     261222      1460.44  263.20 
  2020005     243806      1436.44  287.20 
  2020005     226390      1412.44  311.20 
  2020005     208974      1378.07  345.57 
  2020005     191558      1343.70  379.94 
  2020005     174142      1309.33  414.31 
  2020005     156726      1274.96  448.68 
  2020005     139310      1240.59  483.05 
  2020005     121894      1206.22  517.42 
  2020005 Total nodes  28 Zlength  517.42 

R-1 #1   4010001  1783.11   8.02
  4010001     748871      1784.02    0.91 
  4010001     731455      1778.02    5.09 
  4010001 Total nodes   2 Zlength    6.00

R-8 #1   4080001  1779.86  15.36
  4080001     761730      1777.74   25.42 
  4080001     744335      1771.74   26.60 
  4080001     726919      1765.74   29.00 
  4080001     709503      1759.74   32.35 
  4080001 Total nodes   4 Zlength   18.00

R-8 #2   4080002  1744.60   2.14
  4080002     657255      1741.74   25.49 
  4080002 Total nodes   1 Zlength    3.00 

R-11 #1   4110001  1773.55   6.98
  4110001     748872      1773.80    0.25 
  4110001     731456      1767.80    5.75 
  4110001 Total nodes   2 Zlength    6.00

R-13 #1   4130001  1741.85  18.41
  4130001     661793      1740.34    1.51 
  4130001     644377      1734.34    7.51 
  4130001     626961      1728.34   13.51 
  4130001     609545      1722.34   19.51 
  4130001 Total nodes   4 Zlength   18.00

R-15 #1   4150001  1786.55  18.80
  4150001     766269      1784.66    1.89 
  4150001     748874      1778.66    7.89 
  4150001     731458      1772.66   13.89 
  4150001     714042      1766.66   19.89 
  4150001 Total nodes   4 Zlength   18.00

R-28 #1   4280001  1766.11   7.26
  4280001     731459      1768.48    2.37 
  4280001     714043      1762.48    3.63 
  4280001 Total nodes   2 Zlength    6.00

R-33 #1   4330001  1785.47   7.01
  4330001     766271      1787.02    1.55 
  4330001     748876      1781.02    4.45 
  4330001 Total nodes   2 Zlength    6.00

R-33 #2   4330002  1749.84   3.02
  4330002     661796      1751.02    1.18 
  4330002 Total nodes   1 Zlength    3.00 

R-34 #1   4340001  1751.47   6.98
  4340001     714045      1748.61    2.86 
  4340001     696629      1742.61    8.86 
  4340001 Total nodes   2 Zlength    6.00

R-35a #1   4350101  1709.92  14.97
  4350101     591738      1706.49   19.75 
  4350101     574322      1694.49   24.82 
  4350101 Total nodes   2 Zlength   12.00

R-35b #1   4350201  1767.78   7.04
  4350201     748878      1767.03    0.75 
  4350201     731462      1761.03    6.75 
  4350201 Total nodes   2 Zlength    6.00

R-36 #1   4360001  1775.30   7.01
  4360001     766274      1766.86    8.44 
  4360001     748879      1760.86   14.44 
  4360001 Total nodes   2 Zlength    6.00

R-42 #1   4420001  1776.14   6.43
  4420001     748880      1776.04    0.10 
  4420001     731464      1770.04    6.10 
  4420001 Total nodes   2 Zlength    6.00

R-43 #1   4430001  1776.60   6.31
  4430001     748881      1776.73    0.13 
  4430001     731465      1770.73    5.87 
  4430001 Total nodes   2 Zlength    6.00

R-43 #2   4430002  1756.73   3.05
  4430002     696633      1758.73    2.00 
  4430002 Total nodes   1 Zlength    3.00 

R-44 #1   4440001  1773.91   3.05
  4440001     748882      1772.73    1.18 
  4440001 Total nodes   1 Zlength    3.00

R-44 #2   4440002  1746.39   3.02
  4440002     679218      1748.73    2.34 
  4440002 Total nodes   1 Zlength    3.00

R-45 #1   4450001  1775.16   3.05
  4450001     748883      1772.90    2.26 
  4450001 Total nodes   1 Zlength    3.00

R-45 #2   4450002  1746.24   6.10
  4450002     679219      1748.90    2.66 
  4450002     661803      1742.90    3.34 
  4450002 Total nodes   2 Zlength    6.00

R-50 #1   4500001  1776.10   3.04
  4500001     748884      1774.45    1.65 
  4500001 Total nodes   1 Zlength    3.00

R-50 #2   4500002  1743.18   6.27
  4500002     661804      1744.45    1.27 
  4500002     644388      1738.45    4.73 
  4500002 Total nodes   2 Zlength    6.00

R-61 #1   4610001  1772.45   3.05
  4610001     731469      1770.45    2.00 
  4610001 Total nodes   1 Zlength    3.00 

R-61 #2   4610002  1743.37   6.28
  4610002     644389      1740.45    2.92 
  4610002     626973      1734.45    8.92 
  4610002 Total nodes   2 Zlength    6.00

R-62 #1   4620001  1775.91   6.31
  4620001     748886      1778.48    2.57 
  4620001     731470      1772.48    3.43 
  4620001 Total nodes   2 Zlength    6.00

CrIN-3 #1    610301  1778.50  12.50
   610301     764659      1779.29   10.38 
   610301     747264      1773.29   11.59 
   610301     729848      1767.29   15.26 
   610301 Total nodes   3 Zlength   12.00

CrIN-5 #1    610501  1778.50  12.50
   610501     764482      1781.00   15.26 
   610501     747087      1775.00   15.45 
   610501     729671      1769.00   17.80 
   610501 Total nodes   3 Zlength   12.00

CrIN-6 #1    610601  1778.50  12.50
   610601     747902      1776.51   12.47 
   610601     730486      1770.51   14.67 
   610601     713070      1764.51   18.63 
   610601 Total nodes   3 Zlength   12.00

CrIN-2 #1    611201  1778.50  12.50
   611201     764896      1779.25    4.34 
   611201     747501      1773.25    6.77 
   611201     730085      1767.25   12.04 
   611201 Total nodes   3 Zlength   12.00

CrIN-1 #1    612101  1778.50  12.50
   612101     765141      1779.29   11.09 
   612101     747746      1773.29   12.23 
   612101     730330      1767.29   15.75 
   612101 Total nodes   3 Zlength   12.00

CrIN-4 #1    618401  1778.50  12.50 
   618401     763476      1779.85    2.01 
   618401     746081      1773.85    4.89 
   618401     728665      1767.85   10.76 
   618401 Total nodes   3 Zlength   12.00

CrEX-1 #1    620101  1779.81  15.24
   620101     763630      1780.80   17.77 
   620101     746235      1774.80   18.44 
   620101     728819      1768.80   20.88 
   620101     711403      1762.80   24.58 
   620101 Total nodes   4 Zlength   18.00

CrEX-2 #1    620201  1778.50  12.50
   620201     764640      1780.40    5.93 
   620201     747245      1774.40    6.95 
   620201     729829      1768.40   11.56 
   620201 Total nodes   3 Zlength   12.00

CrEX-3 #1    620301  1778.50  12.50
   620301     763721      1780.52   15.24 
   620301     746326      1774.52   15.63 
   620301     728910      1768.52   18.11 
   620301 Total nodes   3 Zlength   12.00

CrPZ-1 #1    630101  1776.01   3.05
   630101     747661      1776.48    9.87 
   630101 Total nodes   1 Zlength    3.00

CrPZ-2 #1    630201  1776.35   3.05
   630201     747931      1774.93   13.20 
   630201 Total nodes   1 Zlength    3.00 

CrPZ-2 #2    630202  1765.92   6.09
   630202     713099      1762.93   13.46 
   630202     695683      1756.93   15.91 
   630202 Total nodes   2 Zlength    6.00

CrPZ-3 #1    630301  1775.69   6.09
   630301     743687      1776.31   13.96 
   630301     726271      1770.31   14.95 
   630301 Total nodes   2 Zlength    6.00

CrPZ-4 #1    630401  1776.29   6.10
   630401     747878      1777.42   17.24 
   630401     730462      1771.42   17.87 
   630401 Total nodes   2 Zlength    6.00

CrPZ-5 #1    630501  1775.94   6.09
   630501     747860      1777.85   15.13 
   630501     730444      1771.85   15.56 
   630501 Total nodes   2 Zlength    6.00

SCI-1 #1   7010001  1944.58   5.94
  7010001     766282      1783.28  161.30 
  7010001     748887      1777.28  167.30 
  7010001 Total nodes   2 Zlength    6.00

SCI-2 #1   7020001  1886.01   6.10
  7020001     766283      1782.82  103.19 
  7020001     748888      1776.82  109.19 
  7020001 Total nodes   2 Zlength    6.00

MCOI-4 #1   7040001  1931.91   7.04
  7040001     766256      1786.00  145.91 
  7040001     748861      1780.00  151.91 
  7040001 Total nodes   2 Zlength    6.00

MCOI-5 #1   7050001  1868.63   3.04
  7050001     766257      1784.73   83.90 
  7050001 Total nodes   1 Zlength    3.00 

SIMR-2 #1   7050201  1773.11   6.21
  7050201     746911      1772.58    7.51 
  7050201     729495      1766.58    9.94 
  7050201 Total nodes   2 Zlength    6.00

MCOI-6 #1   7060001  1866.93   6.80
  7060001     766258      1784.63   82.30 
  7060001     748863      1778.63   88.30 
  7060001 Total nodes   2 Zlength    6.00

----------------------------------------
Waffle Smooth 2016 V2 well tops

Name     zone    z_grid  z_real   difference

O-1      2010001 1635.76 1639.52  -3.76
O-4      2010004 1680.41 1680.06   0.35
PM-1     2020001 1700.41 1699.26   1.15
PM-2     2020002 1738.69 1740.71  -2.02
PM-3     2020003 1723.87 1723.34   0.53
PM-4     2020004 1730.76 1725.17   5.59
PM-5     2020005 1724.44 1723.64   0.80

R-1      4010001 1784.02 1783.11   0.91
R-8      4080001 1777.74 1779.86  -2.12
R-11     4110001 1773.80 1773.55   0.25
R-13     4130001 1740.34 1741.85  -1.51
R-28     4280001 1768.48 1766.11   2.37
R-33     4330001 1787.02 1785.47   1.55
R-34     4340001 1748.61 1751.47  -2.86
R-35a    4350101 1706.49 1709.92  -3.43
R-35b    4350201 1767.03 1767.78  -0.75
R-36     4360001 1766.86 1775.30  -8.44
R-42     4420001 1776.04 1776.14  -0.10
R-43     4430001 1776.73 1776.60   0.13
R-44     4440001 1772.73 1773.91  -1.18
R-45     4450001 1772.90 1775.16  -2.26
R-50     4500001 1774.45 1776.10  -1.65
R-61     4610001 1770.45 1772.45  -2.00
R-62     4620001 1778.48 1775.91   2.57

SIMR-2   7050201 1772.58 1773.11  -0.53

CrEX-1    620101 1780.80 1779.81   0.00
CrPZ-1    630101 1776.48 1776.01   0.47
CrPZ-2    630201 1774.93 1776.35  -1.42
CrPZ-3    630301 1776.31 1775.69   0.62
CrPZ-4    630401 1777.42 1776.29   1.13
CrPZ-5    630501 1777.85 1775.94   1.91

Cr Wells Aproximate locations:
CrIN-3    610301 1779.29 1778.50   0.00
CrIN-5    610501 1781.00 1778.50   2.50
CrIN-6    610601 1776.51 1778.50  -1.99
CrIN-2    611201 1779.25 1778.50   0.00
CrIN-1    612101 1779.29 1778.50   0.00
CrIN-4    618401 1779.85 1778.50   1.35
CrEX-2    620201 1780.40 1778.50   1.90
CrEX-3    620301 1780.52 1778.50   2.02

Wells above water table:
R-15    4150001 1784.66 1786.55  N/A
SCI-1   7010001 1783.28 1944.58  N/A 
SCI-2   7020001 1782.82 1776.60  N/A
MCOI-4  7040001 1786.00 1931.91  N/A
MCOI-5  7050001 1784.73 1786.55  N/A
MCOI-6  7060001 1784.63 1786.55  N/A

========================================
Nov 7 2016 Cr wells update (mysql and Dan)

Waffle Smooth 2016 Nov update to Cr wells (CrIN-6 missing from data)
Screen top  z_grid  z_real   difference
CrEX-1 #1    620101  1780.77 1779.81     -0.96 
CrIN-1 #1    612101  1779.15 1778.51     -0.64 
CrIN-2 #1    611201  1779.21 1778.63     -0.58 
CrPZ-1 #1    630101  1776.46 1776.01     -0.45 
CrPZ-2 #2    630202  1762.93 1765.92      2.99 
CrPZ-3 #1    630301  1776.31 1775.69     -0.62 
CrPZ-4 #1    630401  1777.32 1776.29     -1.03 
CrPZ-5 #1    630501  1777.74 1775.94     -1.80 

(unchanged)
CrEX-2 #1    620201  1780.40 1778.51     -1.89 
CrEX-3 #1    620301  1774.52 1775.46      0.94 
CrIN-3 #1    610301  1779.29 1778.51     -0.78 
CrIN-4 #1    618401  1779.85 1778.51     -1.34 
CrIN-5 #1    610501  1781.00 1778.51     -2.49 
CrPZ-2 #1    630201  1774.93 1776.35      1.42 

