360K	RDXVA2016/fehm_TA16_V1_40m/wtr_UPZ2_blw_addNW.zonn
88K	RDXVA2016/fehm_TA16_V1_40m/wtr_UPZ2_in_addNW.zonn
8.0K	RDXVA2016/fehm_TA16_V1_40m/hex_wc15c.gmvattr
656K	RDXVA2016/fehm_TA16_V1_40m/tet_ev_material.zone
16K	RDXVA2016/fehm_TA16_V1_40m/out_bottom.zonn
4.0K	RDXVA2016/fehm_TA16_V1_40m/out_east_right.zonn
32K	RDXVA2016/fehm_TA16_V1_40m/out_north_back.zonn
16K	RDXVA2016/fehm_TA16_V1_40m/out_north_east.zonn
44K	RDXVA2016/fehm_TA16_V1_40m/out_south_front.zonn
16K	RDXVA2016/fehm_TA16_V1_40m/out_top.zonn
8.0K	RDXVA2016/fehm_TA16_V1_40m/out_west_left.zonn
496K	RDXVA2016/fehm_TA16_V1_40m/wtr_abv.zonn
16K	RDXVA2016/fehm_TA16_V1_40m/wtr_blw_bot.zonn
4.0K	RDXVA2016/fehm_TA16_V1_40m/wtr_blw_east.zonn
4.0K	RDXVA2016/fehm_TA16_V1_40m/wtr_blw_ne.zonn
8.0K	RDXVA2016/fehm_TA16_V1_40m/wtr_blw_north.zonn
12K	RDXVA2016/fehm_TA16_V1_40m/wtr_blw_south.zonn
4.0K	RDXVA2016/fehm_TA16_V1_40m/wtr_blw_west.zonn
164K	RDXVA2016/fehm_TA16_V1_40m/wtr_blw.zonn
52K	RDXVA2016/fehm_TA16_V1_40m/ck_tet.out.txt
36K	RDXVA2016/fehm_TA16_V1_40m/wtr_UPZ2_Tpf3s.zonn
4.0K	RDXVA2016/fehm_TA16_V1_40m/outx3dgen
4.0K	RDXVA2016/fehm_TA16_V1_40m/logx3dgen
4.0K	RDXVA2016/fehm_TA16_V1_40m/wtr_UPZ2_Tpf3s_intr.zonn
4.0K	RDXVA2016/fehm_TA16_V1_40m/wtr_UPZ2_Tpf3s_win.zonn
96K	RDXVA2016/fehm_TA16_V1_40m/images/tet_mat27_G2.png
104K	RDXVA2016/fehm_TA16_V1_40m/images/tet_mat27_G2_TN.PNG
108K	RDXVA2016/fehm_TA16_V1_40m/images/tet_mat28_G3.png
108K	RDXVA2016/fehm_TA16_V1_40m/images/tet_mat28_G3_TN.PNG
40K	RDXVA2016/fehm_TA16_V1_40m/images/tet_mat_otowi.png
28K	RDXVA2016/fehm_TA16_V1_40m/images/tet_mat_otowi_TN.PNG
36K	RDXVA2016/fehm_TA16_V1_40m/images/tet_mat_puye.png
28K	RDXVA2016/fehm_TA16_V1_40m/images/tet_mat_puye_TN.PNG
264K	RDXVA2016/fehm_TA16_V1_40m/images/tet_mat_raw.png
164K	RDXVA2016/fehm_TA16_V1_40m/images/tet_mat_raw_TN.PNG
152K	RDXVA2016/fehm_TA16_V1_40m/images/tet_mat_top.png
60K	RDXVA2016/fehm_TA16_V1_40m/images/tet_mat_top_TN.PNG
176K	RDXVA2016/fehm_TA16_V1_40m/images/tet_wtrs_yCDV91i_2x.png
172K	RDXVA2016/fehm_TA16_V1_40m/images/tet_wtrs_yCDV91i_2x_TN.PNG
100K	RDXVA2016/fehm_TA16_V1_40m/images/tet_wtrs_ymax_2x.png
104K	RDXVA2016/fehm_TA16_V1_40m/images/tet_wtrs_ymax_2x_TN.PNG
192K	RDXVA2016/fehm_TA16_V1_40m/images/tet_wtrs_ymin_2x.png
168K	RDXVA2016/fehm_TA16_V1_40m/images/tet_wtrs_ymin_2x_TN.PNG
192K	RDXVA2016/fehm_TA16_V1_40m/images/tet_wtrs_yR25_2x.png
172K	RDXVA2016/fehm_TA16_V1_40m/images/tet_wtrs_yR25_2x_TN.PNG
172K	RDXVA2016/fehm_TA16_V1_40m/images/tet_wtrtable_top.png
120K	RDXVA2016/fehm_TA16_V1_40m/images/tet_zonn_UPZ1_61_TN.PNG
192K	RDXVA2016/fehm_TA16_V1_40m/images/tet_zonn_UPZ1_intr_a.png
100K	RDXVA2016/fehm_TA16_V1_40m/images/tet_zonn_UPZ1_intr_a_TN.PNG
772K	RDXVA2016/fehm_TA16_V1_40m/images/tet_zonn_UPZ1_intr_z.png
88K	RDXVA2016/fehm_TA16_V1_40m/images/tet_zonn_UPZ1_intr_z_TN.PNG
228K	RDXVA2016/fehm_TA16_V1_40m/images/tet_zonn_UPZ2_61.png
116K	RDXVA2016/fehm_TA16_V1_40m/images/tet_zonn_UPZ2_61_TN.PNG
92K	RDXVA2016/fehm_TA16_V1_40m/images/tet_zonn_UPZ2_addNW2_back.png
52K	RDXVA2016/fehm_TA16_V1_40m/images/tet_zonn_UPZ2_addNW2_back_TN.PNG
104K	RDXVA2016/fehm_TA16_V1_40m/images/tet_zonn_UPZ2_addNW2_front.png
68K	RDXVA2016/fehm_TA16_V1_40m/images/tet_zonn_UPZ2_addNW2_front_TN.PNG
148K	RDXVA2016/fehm_TA16_V1_40m/images/tet_zonn_UPZ2_addNW2_pts.png
84K	RDXVA2016/fehm_TA16_V1_40m/images/tet_zonn_UPZ2_addNW2_pts_TN.PNG
192K	RDXVA2016/fehm_TA16_V1_40m/images/tet_zonn_UPZ2_addNW2.png
128K	RDXVA2016/fehm_TA16_V1_40m/images/tet_zonn_UPZ2_addNW2_TN.PNG
188K	RDXVA2016/fehm_TA16_V1_40m/images/tet_zonn_UPZ2_addNW2_zmat.png
88K	RDXVA2016/fehm_TA16_V1_40m/images/tet_zonn_UPZ2_addNW2_zmat_TN.PNG
180K	RDXVA2016/fehm_TA16_V1_40m/images/tet_zonn_UPZ2_clip.png
112K	RDXVA2016/fehm_TA16_V1_40m/images/tet_zonn_UPZ2_clip_TN.PNG
792K	RDXVA2016/fehm_TA16_V1_40m/images/tet_zonn_UPZ2_intr_3x.png
188K	RDXVA2016/fehm_TA16_V1_40m/images/tet_zonn_UPZ2_intr_3x_TN.PNG
500K	RDXVA2016/fehm_TA16_V1_40m/images/tet_zonn_UPZ2_addNW2_pts.rgb
476K	RDXVA2016/fehm_TA16_V1_40m/images/tet_zonn_UPZ2_addNW2_zmat.rgb
1016K	RDXVA2016/fehm_TA16_V1_40m/images/qual_tet_vol.rgb
360K	RDXVA2016/fehm_TA16_V1_40m/images/qual_tet_vol_small.rgb
260K	RDXVA2016/fehm_TA16_V1_40m/images/qual_wedges.rgb
264K	RDXVA2016/fehm_TA16_V1_40m/images/qual_needles.rgb
616K	RDXVA2016/fehm_TA16_V1_40m/images/qual_slivers.rgb
184K	RDXVA2016/fehm_TA16_V1_40m/images/hex_mat_back.png
124K	RDXVA2016/fehm_TA16_V1_40m/images/hex_mat_back_TN.PNG
188K	RDXVA2016/fehm_TA16_V1_40m/images/hex_mat_front.png
132K	RDXVA2016/fehm_TA16_V1_40m/images/hex_mat_front_TN.PNG
248K	RDXVA2016/fehm_TA16_V1_40m/images/mat_Qbof_top_NW.png
124K	RDXVA2016/fehm_TA16_V1_40m/images/mat_Qbof_top_NW_TN.PNG
236K	RDXVA2016/fehm_TA16_V1_40m/images/mat_Qbof_top.png
120K	RDXVA2016/fehm_TA16_V1_40m/images/mat_Qbof_top_TN.PNG
216K	RDXVA2016/fehm_TA16_V1_40m/images/mat_Tpf3_top_NW.png
144K	RDXVA2016/fehm_TA16_V1_40m/images/mat_Tpf3_top_NW_TN.PNG
188K	RDXVA2016/fehm_TA16_V1_40m/images/mat_Tpf3_top.png
132K	RDXVA2016/fehm_TA16_V1_40m/images/mat_Tpf3_top_TN.PNG
44K	RDXVA2016/fehm_TA16_V1_40m/images/qual_needles.png
20K	RDXVA2016/fehm_TA16_V1_40m/images/qual_needles_TN.PNG
712K	RDXVA2016/fehm_TA16_V1_40m/images/XnoUPZ2_pts_NW.rgb
404K	RDXVA2016/fehm_TA16_V1_40m/images/XnoUPZ2_pts_back.rgb
536K	RDXVA2016/fehm_TA16_V1_40m/images/XnoUPZ2_pts_west.rgb
432K	RDXVA2016/fehm_TA16_V1_40m/images/Xreset_UPZ2_pts_otowi.rgb
324K	RDXVA2016/fehm_TA16_V1_40m/images/Xtet_zonn_UPZ2_addNW.rgb
916K	RDXVA2016/fehm_TA16_V1_40m/images/Xtet_zonn_UPZ2_nw_back.rgb
680K	RDXVA2016/fehm_TA16_V1_40m/images/Xtet_zonn_UPZ2_nw_front.rgb
688K	RDXVA2016/fehm_TA16_V1_40m/images/Xtet_zonn_UPZ2_addNW_box.rgb
1.1M	RDXVA2016/fehm_TA16_V1_40m/images/tet_zonn_UPZ2_addNW2.rgb
308K	RDXVA2016/fehm_TA16_V1_40m/images/tet_zonn_UPZ2_addNW2_front.rgb
256K	RDXVA2016/fehm_TA16_V1_40m/images/tet_zonn_UPZ2_addNW2_back.rgb
56K	RDXVA2016/fehm_TA16_V1_40m/images/tet_wtrtable_top_TN.PNG
216K	RDXVA2016/fehm_TA16_V1_40m/images/tet_zone_01_top.png
100K	RDXVA2016/fehm_TA16_V1_40m/images/tet_zone_01_top_TN.PNG
36K	RDXVA2016/fehm_TA16_V1_40m/images/tet_zone_02_bottom.png
72K	RDXVA2016/fehm_TA16_V1_40m/images/tet_zone_02_bottom_TN.PNG
128K	RDXVA2016/fehm_TA16_V1_40m/images/tet_zone_03_west.png
76K	RDXVA2016/fehm_TA16_V1_40m/images/tet_zone_03_west_TN.PNG
188K	RDXVA2016/fehm_TA16_V1_40m/images/tet_zone_04_south.png
96K	RDXVA2016/fehm_TA16_V1_40m/images/tet_zone_04_south_TN.PNG
144K	RDXVA2016/fehm_TA16_V1_40m/images/tet_zone_05_east.png
76K	RDXVA2016/fehm_TA16_V1_40m/images/tet_zone_05_east_TN.PNG
196K	RDXVA2016/fehm_TA16_V1_40m/images/tet_zone_06_north.png
100K	RDXVA2016/fehm_TA16_V1_40m/images/tet_zone_06_north_TN.PNG
164K	RDXVA2016/fehm_TA16_V1_40m/images/tet_zone_07_north_east.png
84K	RDXVA2016/fehm_TA16_V1_40m/images/tet_zone_07_north_east_TN.PNG
80K	RDXVA2016/fehm_TA16_V1_40m/images/tet_zone_41_wtr_blw_a.png
92K	RDXVA2016/fehm_TA16_V1_40m/images/tet_zone_41_wtr_blw_a_TN.PNG
252K	RDXVA2016/fehm_TA16_V1_40m/images/tet_zone_41_wtr_blw.png
136K	RDXVA2016/fehm_TA16_V1_40m/images/tet_zone_41_wtr_blw_TN.PNG
200K	RDXVA2016/fehm_TA16_V1_40m/images/tet_zonn102_canyon_.png
92K	RDXVA2016/fehm_TA16_V1_40m/images/tet_zonn102_canyon__TN.PNG
272K	RDXVA2016/fehm_TA16_V1_40m/images/tet_zonn42_blw_bot.rgb
1.8M	RDXVA2016/fehm_TA16_V1_40m/images/tet_zonn43_blw_west.rgb
1.4M	RDXVA2016/fehm_TA16_V1_40m/images/tet_zonn44_blw_south.rgb
1.4M	RDXVA2016/fehm_TA16_V1_40m/images/tet_zonn45_blw_east.rgb
1.5M	RDXVA2016/fehm_TA16_V1_40m/images/tet_zonn46_blw_north.rgb
1.7M	RDXVA2016/fehm_TA16_V1_40m/images/tet_zonn47_blw_ne.rgb
508K	RDXVA2016/fehm_TA16_V1_40m/images/saturation_cross_3.JPG
4.0K	RDXVA2016/fehm_TA16_V1_40m/images/._saturation_cross_3.JPG
316K	RDXVA2016/fehm_TA16_V1_40m/images/saturation_cross_cdv-9-i.JPG
4.0K	RDXVA2016/fehm_TA16_V1_40m/images/._saturation_cross_cdv-9-i.JPG
388K	RDXVA2016/fehm_TA16_V1_40m/images/saturation_cross_r25.JPG
4.0K	RDXVA2016/fehm_TA16_V1_40m/images/._saturation_cross_r25.JPG
136K	RDXVA2016/fehm_TA16_V1_40m/images/Xtet_zonn_UPZ2_addNW.png
84K	RDXVA2016/fehm_TA16_V1_40m/images/Xtet_zonn_UPZ2_addNW_TN.PNG
296K	RDXVA2016/fehm_TA16_V1_40m/images/Xtet_zonn_UPZ2_nw_back.png
80K	RDXVA2016/fehm_TA16_V1_40m/images/Xtet_zonn_UPZ2_nw_back_TN.PNG
244K	RDXVA2016/fehm_TA16_V1_40m/images/Xtet_zonn_UPZ2_nw_front.png
76K	RDXVA2016/fehm_TA16_V1_40m/images/Xtet_zonn_UPZ2_nw_front_TN.PNG
2.7M	RDXVA2016/fehm_TA16_V1_40m/images/saturation_cross_3.png
136K	RDXVA2016/fehm_TA16_V1_40m/images/saturation_cross_3_TN.PNG
1.6M	RDXVA2016/fehm_TA16_V1_40m/images/saturation_cross_cdv-9-i.png
80K	RDXVA2016/fehm_TA16_V1_40m/images/saturation_cross_cdv-9-i_TN.PNG
2.0M	RDXVA2016/fehm_TA16_V1_40m/images/saturation_cross_r25.png
92K	RDXVA2016/fehm_TA16_V1_40m/images/saturation_cross_r25_TN.PNG
476K	RDXVA2016/fehm_TA16_V1_40m/images/tet_zonn_UPZ2_Tpf3s.rgb
372K	RDXVA2016/fehm_TA16_V1_40m/images/pts_for_Tpf3s_window.rgb
964K	RDXVA2016/fehm_TA16_V1_40m/images/pts_for_Tpf3s_window.png
84K	RDXVA2016/fehm_TA16_V1_40m/images/pts_for_Tpf3s_window_TN.PNG
128K	RDXVA2016/fehm_TA16_V1_40m/images/tet_zonn_UPZ2_Tpf3s.png
100K	RDXVA2016/fehm_TA16_V1_40m/images/tet_zonn_UPZ2_Tpf3s_TN.PNG
4.0K	RDXVA2016/fehm_TA16_V1_40m/images/._pts_for_Tpf3s_window.png
4.0K	RDXVA2016/fehm_TA16_V1_40m/images/outx3dgen
192K	RDXVA2016/fehm_TA16_V1_40m/images/tet_zonn_UPZ2_intr_a.png
108K	RDXVA2016/fehm_TA16_V1_40m/images/tet_zonn_UPZ2_intr_a_TN.PNG
612K	RDXVA2016/fehm_TA16_V1_40m/images/tet_zonn_UPZ2_intrb_a.png
80K	RDXVA2016/fehm_TA16_V1_40m/images/tet_zonn_UPZ2_intrb_a_TN.PNG
868K	RDXVA2016/fehm_TA16_V1_40m/images/tet_zonn_UPZ2_intrb_b.png
136K	RDXVA2016/fehm_TA16_V1_40m/images/tet_zonn_UPZ2_intrb_b_TN.PNG
688K	RDXVA2016/fehm_TA16_V1_40m/images/tet_zonn_UPZ2_intrb_z.png
84K	RDXVA2016/fehm_TA16_V1_40m/images/tet_zonn_UPZ2_intrb_z_TN.PNG
804K	RDXVA2016/fehm_TA16_V1_40m/images/tet_zonn_UPZ2_intr_z.png
92K	RDXVA2016/fehm_TA16_V1_40m/images/tet_zonn_UPZ2_intr_z_TN.PNG
204K	RDXVA2016/fehm_TA16_V1_40m/images/tet_zonn_UPZ2_yCDV91i.png
148K	RDXVA2016/fehm_TA16_V1_40m/images/tet_zonn_UPZ2_yCDV91i_TN.PNG
108K	RDXVA2016/fehm_TA16_V1_40m/images/tet_zonn_UPZ2_yCDV91i_S.png
96K	RDXVA2016/fehm_TA16_V1_40m/images/tet_zonn_UPZ2_yCDV91i_S_TN.PNG
92K	RDXVA2016/fehm_TA16_V1_40m/images/tet_zonn_UPZ2_ymax.png
112K	RDXVA2016/fehm_TA16_V1_40m/images/tet_zonn_UPZ2_ymax_TN.PNG
60K	RDXVA2016/fehm_TA16_V1_40m/images/tet_zonn_UPZ2_ymax_S.png
76K	RDXVA2016/fehm_TA16_V1_40m/images/tet_zonn_UPZ2_ymax_S_TN.PNG
296K	RDXVA2016/fehm_TA16_V1_40m/images/tet_zonn_UPZ2_ymin.png
156K	RDXVA2016/fehm_TA16_V1_40m/images/tet_zonn_UPZ2_ymin_TN.PNG
172K	RDXVA2016/fehm_TA16_V1_40m/images/tet_zonn_UPZ2_ymin_S.png
92K	RDXVA2016/fehm_TA16_V1_40m/images/tet_mat10_TPF2_TN.PNG
100K	RDXVA2016/fehm_TA16_V1_40m/images/tet_mat11_TVT2.png
92K	RDXVA2016/fehm_TA16_V1_40m/images/tet_mat11_TVT2_TN.PNG
104K	RDXVA2016/fehm_TA16_V1_40m/images/tet_mat14_TPF3.png
120K	RDXVA2016/fehm_TA16_V1_40m/images/tet_mat14_TPF3_TN.PNG
128K	RDXVA2016/fehm_TA16_V1_40m/images/tet_mat16_QBOF.png
120K	RDXVA2016/fehm_TA16_V1_40m/images/tet_mat16_QBOF_TN.PNG
224K	RDXVA2016/fehm_TA16_V1_40m/images/tet_mat17_19_QCT_QBT1G.png
104K	RDXVA2016/fehm_TA16_V1_40m/images/tet_mat17_19_QCT_QBT1G_TN.PNG
80K	RDXVA2016/fehm_TA16_V1_40m/images/tet_mat17_QCT.png
80K	RDXVA2016/fehm_TA16_V1_40m/images/tet_mat17_QCT_TN.PNG
52K	RDXVA2016/fehm_TA16_V1_40m/images/tet_mat21_QBT1v.png
48K	RDXVA2016/fehm_TA16_V1_40m/images/tet_mat21_QBT1v_TN.PNG
244K	RDXVA2016/fehm_TA16_V1_40m/images/tet_mat22_QBT2.png
100K	RDXVA2016/fehm_TA16_V1_40m/images/tet_mat22_QBT2_TN.PNG
260K	RDXVA2016/fehm_TA16_V1_40m/images/tet_mat23_QBT3.png
104K	RDXVA2016/fehm_TA16_V1_40m/images/tet_mat23_QBT3_TN.PNG
64K	RDXVA2016/fehm_TA16_V1_40m/images/tet_mat24_QBT3t.png
52K	RDXVA2016/fehm_TA16_V1_40m/images/tet_mat24_QBT3t_TN.PNG
32K	RDXVA2016/fehm_TA16_V1_40m/images/tet_mat25_QBT4.png
32K	RDXVA2016/fehm_TA16_V1_40m/images/tet_mat25_QBT4_TN.PNG
2.2M	RDXVA2016/fehm_TA16_V1_40m/images/tet_zonn_UPZ2_intrb_b.rgb
2.9M	RDXVA2016/fehm_TA16_V1_40m/images/tet_zonn_UPZ2_intr_3x.rgb
520K	RDXVA2016/fehm_TA16_V1_40m/images/tet_zonn_UPZ1_intr_a.rgb
1.2M	RDXVA2016/fehm_TA16_V1_40m/images/tet_zonn_UPZ1_intr_z.rgb
296K	RDXVA2016/fehm_TA16_V1_40m/images/tet_zonn_LPZ1_intr_a.rgb
508K	RDXVA2016/fehm_TA16_V1_40m/images/tet_zonn102_canyon_.rgb
1.9M	RDXVA2016/fehm_TA16_V1_40m/images/tet_wtrs_yR25_2x.rgb
1.8M	RDXVA2016/fehm_TA16_V1_40m/images/tet_wtrs_yCDV91i_2x.rgb
1.9M	RDXVA2016/fehm_TA16_V1_40m/images/tet_wtrs_ymin_2x.rgb
904K	RDXVA2016/fehm_TA16_V1_40m/images/tet_wtrs_ymax_2x.rgb
28K	RDXVA2016/fehm_TA16_V1_40m/images/gallery.html
1.3M	RDXVA2016/fehm_TA16_V1_40m/images/tet_zone_41_wtr_blw.rgb
824K	RDXVA2016/fehm_TA16_V1_40m/images/tet_zone_41_wtr_blw_a.rgb
476K	RDXVA2016/fehm_TA16_V1_40m/images/tet_wtrtable_top.rgb
324K	RDXVA2016/fehm_TA16_V1_40m/images/qual_slivers.png
92K	RDXVA2016/fehm_TA16_V1_40m/images/qual_slivers_TN.PNG
3.4M	RDXVA2016/fehm_TA16_V1_40m/images/qual_tet_vol.png
192K	RDXVA2016/fehm_TA16_V1_40m/images/qual_tet_vol_TN.PNG
180K	RDXVA2016/fehm_TA16_V1_40m/images/qual_tet_vol_small.png
120K	RDXVA2016/fehm_TA16_V1_40m/images/qual_tet_vol_small_TN.PNG
40K	RDXVA2016/fehm_TA16_V1_40m/images/qual_wedges.png
20K	RDXVA2016/fehm_TA16_V1_40m/images/qual_wedges_TN.PNG
288K	RDXVA2016/fehm_TA16_V1_40m/images/tet_a.png
128K	RDXVA2016/fehm_TA16_V1_40m/images/tet_a_TN.PNG
284K	RDXVA2016/fehm_TA16_V1_40m/images/tet_c.png
164K	RDXVA2016/fehm_TA16_V1_40m/images/tet_c_TN.PNG
32K	RDXVA2016/fehm_TA16_V1_40m/images/tet_iso_wtrs1.png
32K	RDXVA2016/fehm_TA16_V1_40m/images/tet_iso_wtrs1_TN.PNG
84K	RDXVA2016/fehm_TA16_V1_40m/images/tet_iso_wtrs1_top.png
72K	RDXVA2016/fehm_TA16_V1_40m/images/tet_iso_wtrs1_top_TN.PNG
36K	RDXVA2016/fehm_TA16_V1_40m/images/tet_iso_wtrs2.png
36K	RDXVA2016/fehm_TA16_V1_40m/images/tet_iso_wtrs2_TN.PNG
84K	RDXVA2016/fehm_TA16_V1_40m/images/tet_iso_wtrs2_top.png
76K	RDXVA2016/fehm_TA16_V1_40m/images/tet_iso_wtrs2_top_TN.PNG
92K	RDXVA2016/fehm_TA16_V1_40m/images/tet_mat10_TPF2.png
752K	RDXVA2016/fehm_TA16_V1_40m/images/tet_mat17_19_QCT_QBT1G.rgb
372K	RDXVA2016/fehm_TA16_V1_40m/images/tet_mat21_QBT1v.rgb
772K	RDXVA2016/fehm_TA16_V1_40m/images/tet_mat22_QBT2.rgb
848K	RDXVA2016/fehm_TA16_V1_40m/images/tet_mat23_QBT3.rgb
456K	RDXVA2016/fehm_TA16_V1_40m/images/tet_mat24_QBT3t.rgb
300K	RDXVA2016/fehm_TA16_V1_40m/images/tet_mat25_QBT4.rgb
420K	RDXVA2016/fehm_TA16_V1_40m/images/tet_mat_top.rgb
284K	RDXVA2016/fehm_TA16_V1_40m/images/tet_mat_otowi.rgb
280K	RDXVA2016/fehm_TA16_V1_40m/images/tet_mat_puye.rgb
500K	RDXVA2016/fehm_TA16_V1_40m/images/tet_zone_01_top.rgb
276K	RDXVA2016/fehm_TA16_V1_40m/images/tet_zone_02_bottom.rgb
380K	RDXVA2016/fehm_TA16_V1_40m/images/tet_zone_03_west.rgb
580K	RDXVA2016/fehm_TA16_V1_40m/images/tet_zone_04_south.rgb
396K	RDXVA2016/fehm_TA16_V1_40m/images/tet_zone_05_east.rgb
640K	RDXVA2016/fehm_TA16_V1_40m/images/tet_zone_06_north.rgb
516K	RDXVA2016/fehm_TA16_V1_40m/images/tet_zone_07_north_east.rgb
460K	RDXVA2016/fehm_TA16_V1_40m/images/tet_zonn_UPZ2_ymin_S.rgb
1.4M	RDXVA2016/fehm_TA16_V1_40m/images/tet_mat_raw.rgb
1.1M	RDXVA2016/fehm_TA16_V1_40m/images/hex_mat_front.rgb
1.1M	RDXVA2016/fehm_TA16_V1_40m/images/hex_mat_back.rgb
860K	RDXVA2016/fehm_TA16_V1_40m/images/mat_Qbof_top_NW.rgb
808K	RDXVA2016/fehm_TA16_V1_40m/images/mat_Qbof_top.rgb
960K	RDXVA2016/fehm_TA16_V1_40m/images/mat_Tpf3_top.rgb
936K	RDXVA2016/fehm_TA16_V1_40m/images/mat_Tpf3_top_NW.rgb
1.9M	RDXVA2016/fehm_TA16_V1_40m/images/tet_a.rgb
1.5M	RDXVA2016/fehm_TA16_V1_40m/images/tet_c.rgb
760K	RDXVA2016/fehm_TA16_V1_40m/images/tet_mat10_TPF2.rgb
828K	RDXVA2016/fehm_TA16_V1_40m/images/tet_mat11_TVT2.rgb
996K	RDXVA2016/fehm_TA16_V1_40m/images/tet_mat14_TPF3.rgb
680K	RDXVA2016/fehm_TA16_V1_40m/images/tet_mat27_G2.rgb
712K	RDXVA2016/fehm_TA16_V1_40m/images/tet_mat28_G3.rgb
840K	RDXVA2016/fehm_TA16_V1_40m/images/tet_mat16_QBOF.rgb
528K	RDXVA2016/fehm_TA16_V1_40m/images/tet_mat17_QCT.rgb
96K	RDXVA2016/fehm_TA16_V1_40m/images/tet_zonn_UPZ2_ymin_S_TN.PNG
240K	RDXVA2016/fehm_TA16_V1_40m/images/tet_zonn_UPZ2_yR25.png
144K	RDXVA2016/fehm_TA16_V1_40m/images/tet_zonn_UPZ2_yR25_TN.PNG
132K	RDXVA2016/fehm_TA16_V1_40m/images/tet_zonn_UPZ2_yR25_S.png
96K	RDXVA2016/fehm_TA16_V1_40m/images/tet_zonn_UPZ2_yR25_S_TN.PNG
40K	RDXVA2016/fehm_TA16_V1_40m/images/tet_zonn_wtr1_mat_3x.png
44K	RDXVA2016/fehm_TA16_V1_40m/images/tet_zonn_wtr1_mat_3x_TN.PNG
56K	RDXVA2016/fehm_TA16_V1_40m/images/tet_zonn_wtrs2_3x.png
80K	RDXVA2016/fehm_TA16_V1_40m/images/tet_zonn_wtrs2_3x_TN.PNG
52K	RDXVA2016/fehm_TA16_V1_40m/images/tet_zonn_wtrs2_mat_3x.png
64K	RDXVA2016/fehm_TA16_V1_40m/images/tet_zonn_wtrs2_mat_3x_TN.PNG
80K	RDXVA2016/fehm_TA16_V1_40m/images/XnoUPZ2_pts_back.png
88K	RDXVA2016/fehm_TA16_V1_40m/images/XnoUPZ2_pts_back_TN.PNG
220K	RDXVA2016/fehm_TA16_V1_40m/images/XnoUPZ2_pts_NW.png
156K	RDXVA2016/fehm_TA16_V1_40m/images/XnoUPZ2_pts_NW_TN.PNG
160K	RDXVA2016/fehm_TA16_V1_40m/images/XnoUPZ2_pts_west.png
140K	RDXVA2016/fehm_TA16_V1_40m/images/XnoUPZ2_pts_west_TN.PNG
140K	RDXVA2016/fehm_TA16_V1_40m/images/Xreset_UPZ2_pts_otowi.png
100K	RDXVA2016/fehm_TA16_V1_40m/images/Xreset_UPZ2_pts_otowi_TN.PNG
192K	RDXVA2016/fehm_TA16_V1_40m/images/Xtet_zonn_UPZ2_addNW_box.png
84K	RDXVA2016/fehm_TA16_V1_40m/images/Xtet_zonn_UPZ2_addNW_box_TN.PNG
316K	RDXVA2016/fehm_TA16_V1_40m/images/tet_zonn_LPZ1_71_reset.rgb
1.9M	RDXVA2016/fehm_TA16_V1_40m/images/tet_zonn_UPZ2_ymin.rgb
1.7M	RDXVA2016/fehm_TA16_V1_40m/images/tet_zonn_UPZ2_yR25.rgb
444K	RDXVA2016/fehm_TA16_V1_40m/images/tet_zonn_UPZ2_yR25_S.rgb
416K	RDXVA2016/fehm_TA16_V1_40m/images/tet_zonn_UPZ2_yCDV91i_S.rgb
1.6M	RDXVA2016/fehm_TA16_V1_40m/images/tet_zonn_UPZ2_yCDV91i.rgb
316K	RDXVA2016/fehm_TA16_V1_40m/images/tet_zonn_UPZ2_ymax_S.rgb
960K	RDXVA2016/fehm_TA16_V1_40m/images/tet_zonn_UPZ2_ymax.rgb
600K	RDXVA2016/fehm_TA16_V1_40m/images/tet_zonn_UPZ2_clip.rgb
528K	RDXVA2016/fehm_TA16_V1_40m/images/tet_zonn_UPZ2_intr_a.rgb
1.2M	RDXVA2016/fehm_TA16_V1_40m/images/tet_zonn_UPZ2_intr_z.rgb
1.1M	RDXVA2016/fehm_TA16_V1_40m/images/tet_zonn_UPZ2_intrb_z.rgb
948K	RDXVA2016/fehm_TA16_V1_40m/images/tet_zonn_UPZ2_intrb_a.rgb
4.0K	RDXVA2016/fehm_TA16_V1_40m/images/logx3dgen
128K	RDXVA2016/fehm_TA16_V1_40m/images/tet_wtrs_window.rgb
984K	RDXVA2016/fehm_TA16_V1_40m/images/tet_wtrs_win_Sslice.rgb
1016K	RDXVA2016/fehm_TA16_V1_40m/images/tet_wtrs_win_Nslice.rgb
440K	RDXVA2016/fehm_TA16_V1_40m/images/pts_wtrs_window.rgb
76K	RDXVA2016/fehm_TA16_V1_40m/images/pts_wtrs_window.png
68K	RDXVA2016/fehm_TA16_V1_40m/images/pts_wtrs_window_TN.PNG
232K	RDXVA2016/fehm_TA16_V1_40m/images/tet_wtrs_window.png
28K	RDXVA2016/fehm_TA16_V1_40m/images/tet_wtrs_window_TN.PNG
3.4M	RDXVA2016/fehm_TA16_V1_40m/images/tet_wtrs_win_Nslice.png
160K	RDXVA2016/fehm_TA16_V1_40m/images/tet_wtrs_win_Nslice_TN.PNG
3.2M	RDXVA2016/fehm_TA16_V1_40m/images/tet_wtrs_win_Sslice.png
152K	RDXVA2016/fehm_TA16_V1_40m/images/tet_wtrs_win_Sslice_TN.PNG
12K	RDXVA2016/fehm_TA16_V1_40m/images/README.txt
16K	RDXVA2016/fehm_TA16_V1_40m/images/mesh.html
32K	RDXVA2016/fehm_TA16_V1_40m/images/tet_zonn42_blw_bot.png
64K	RDXVA2016/fehm_TA16_V1_40m/images/tet_zonn42_blw_bot_TN.PNG
236K	RDXVA2016/fehm_TA16_V1_40m/images/tet_zonn43_blw_west.png
152K	RDXVA2016/fehm_TA16_V1_40m/images/tet_zonn43_blw_west_TN.PNG
260K	RDXVA2016/fehm_TA16_V1_40m/images/tet_zonn44_blw_south.png
144K	RDXVA2016/fehm_TA16_V1_40m/images/tet_zonn44_blw_south_TN.PNG
224K	RDXVA2016/fehm_TA16_V1_40m/images/tet_zonn45_blw_east.png
124K	RDXVA2016/fehm_TA16_V1_40m/images/tet_zonn45_blw_east_TN.PNG
216K	RDXVA2016/fehm_TA16_V1_40m/images/tet_zonn46_blw_north.png
128K	RDXVA2016/fehm_TA16_V1_40m/images/tet_zonn46_blw_north_TN.PNG
260K	RDXVA2016/fehm_TA16_V1_40m/images/tet_zonn47_blw_ne.png
144K	RDXVA2016/fehm_TA16_V1_40m/images/tet_zonn47_blw_ne_TN.PNG
44K	RDXVA2016/fehm_TA16_V1_40m/images/tet_zonn_LPZ1_71_reset.png
32K	RDXVA2016/fehm_TA16_V1_40m/images/tet_zonn_LPZ1_71_reset_TN.PNG
180K	RDXVA2016/fehm_TA16_V1_40m/images/tet_zonn_LPZ1_71.png
112K	RDXVA2016/fehm_TA16_V1_40m/images/tet_zonn_LPZ1_71_TN.PNG
56K	RDXVA2016/fehm_TA16_V1_40m/images/tet_zonn_LPZ1_intr_a.png
56K	RDXVA2016/fehm_TA16_V1_40m/images/tet_zonn_LPZ1_intr_a_TN.PNG
220K	RDXVA2016/fehm_TA16_V1_40m/images/tet_zonn_LPZ1_intr_z.png
64K	RDXVA2016/fehm_TA16_V1_40m/images/tet_zonn_LPZ1_intr_z_TN.PNG
228K	RDXVA2016/fehm_TA16_V1_40m/images/tet_zonn_UPZ1_61.png
1.2M	RDXVA2016/fehm_TA16_V1_40m/images/tet_zonn260_pond.rgb
236K	RDXVA2016/fehm_TA16_V1_40m/images/tet_zonn260_pond.png
116K	RDXVA2016/fehm_TA16_V1_40m/images/tet_zonn260_pond_TN.PNG
196K	RDXVA2016/fehm_TA16_V1_40m/images/view_CdV_canyon_polys.rgb
1.5M	RDXVA2016/fehm_TA16_V1_40m/images/tet_zonn101_canyon_cdv.rgb
344K	RDXVA2016/fehm_TA16_V1_40m/images/tet_zonn101_canyon_cdv.png
144K	RDXVA2016/fehm_TA16_V1_40m/images/tet_zonn101_canyon_cdv_TN.PNG
12K	RDXVA2016/fehm_TA16_V1_40m/images/view_CdV_canyon_polys.png
12K	RDXVA2016/fehm_TA16_V1_40m/images/view_CdV_canyon_polys_TN.PNG
504K	RDXVA2016/fehm_TA16_V1_40m/images/tet_zonn_wtrs2_mat_3x.rgb
448K	RDXVA2016/fehm_TA16_V1_40m/images/tet_zonn_wtrs2_3x.rgb
492K	RDXVA2016/fehm_TA16_V1_40m/images/tet_zonn_LPZ1_intr_z.rgb
400K	RDXVA2016/fehm_TA16_V1_40m/images/tet_zonn_wtr1_mat_3x.rgb
888K	RDXVA2016/fehm_TA16_V1_40m/images/tet_zonn_LPZ1_71.rgb
1.1M	RDXVA2016/fehm_TA16_V1_40m/images/tet_zonn_UPZ1_61.rgb
1.1M	RDXVA2016/fehm_TA16_V1_40m/images/tet_zonn_UPZ2_61.rgb
256K	RDXVA2016/fehm_TA16_V1_40m/images/tet_iso_wtrs2.rgb
256K	RDXVA2016/fehm_TA16_V1_40m/images/tet_iso_wtrs1.rgb
404K	RDXVA2016/fehm_TA16_V1_40m/images/tet_iso_wtrs1_top.rgb
400K	RDXVA2016/fehm_TA16_V1_40m/images/tet_iso_wtrs2_top.rgb
129M	RDXVA2016/fehm_TA16_V1_40m/images
8.0K	RDXVA2016/fehm_TA16_V1_40m/tet_wc15c.gmvattr
96K	RDXVA2016/fehm_TA16_V1_40m/wtr_UPZ1_in.zonn
4.0K	RDXVA2016/fehm_TA16_V1_40m/canyon_bot.zonn
0	RDXVA2016/fehm_TA16_V1_40m/pond260.zonn
4.0K	RDXVA2016/fehm_TA16_V1_40m/canyon_cdv.zonn
28K	RDXVA2016/fehm_TA16_V1_40m/.README.txt.swp
4.0K	RDXVA2016/fehm_TA16_V1_40m/write_fehm.lgi
204K	RDXVA2016/fehm_TA16_V1_40m/wtr_LPZ1_blw.zonn
4.0K	RDXVA2016/fehm_TA16_V1_40m/wtr_LPZ1_in.zonn
364K	RDXVA2016/fehm_TA16_V1_40m/wtr_UPZ2_blw.zonn
18M	RDXVA2016/fehm_TA16_V1_40m/tet.fehmn
88K	RDXVA2016/fehm_TA16_V1_40m/wtr_UPZ2_in.zonn
368K	RDXVA2016/fehm_TA16_V1_40m/wtr_UPZ1_blw.zonn
26M	RDXVA2016/fehm_TA16_V1_40m/tet.stor
15M	RDXVA2016/fehm_TA16_V1_40m/tet_fehm.gmv
18M	RDXVA2016/fehm_TA16_V1_40m/tet_bin.stor
88K	RDXVA2016/fehm_TA16_V1_40m/write_fehm.out.txt
4.0K	RDXVA2016/fehm_TA16_V1_40m/write_fehm.log.txt
8.0K	RDXVA2016/fehm_TA16_V1_40m/zones/tet_wp2_vol_xslice.gmvattr
8.0K	RDXVA2016/fehm_TA16_V1_40m/zones/full.gmvattr
4.0K	RDXVA2016/fehm_TA16_V1_40m/zones/get_ev_zones.lgi
8.0K	RDXVA2016/fehm_TA16_V1_40m/zones/get_tet_mat.lgi
4.0K	RDXVA2016/fehm_TA16_V1_40m/zones/merge_surfs.lgi
4.0K	RDXVA2016/fehm_TA16_V1_40m/zones/stack.lgi
4.0K	RDXVA2016/fehm_TA16_V1_40m/zones/view_wtr_objects.lgi
28K	RDXVA2016/fehm_TA16_V1_40m/zones/outx3dgen
4.0K	RDXVA2016/fehm_TA16_V1_40m/zones/logx3dgen
13M	RDXVA2016/fehm_TA16_V1_40m/zones/tet_ev_mat.gmv
656K	RDXVA2016/fehm_TA16_V1_40m/zones/tet_ev_material.zone
88K	RDXVA2016/fehm_TA16_V1_40m/zones/wtr_UPZ2_in.zonn
50M	RDXVA2016/fehm_TA16_V1_40m/zones/merge_tet_UPZ2surfs.gmv
12K	RDXVA2016/fehm_TA16_V1_40m/zones/view_tet_wtr_clip.gmvattr
8.0K	RDXVA2016/fehm_TA16_V1_40m/zones/tet_wtr_intrface.gmvattr
8.0K	RDXVA2016/fehm_TA16_V1_40m/zones/tet_wtr_intr_z.gmvattr
4.0K	RDXVA2016/fehm_TA16_V1_40m/zones/get_wtr_UPZ2.lgi
28K	RDXVA2016/fehm_TA16_V1_40m/zones/get_wtr_UPZ2.out.txt
8.0K	RDXVA2016/fehm_TA16_V1_40m/zones/260pond_ply_fence.gmv
4.0K	RDXVA2016/fehm_TA16_V1_40m/zones/mk_pond260_fence.lgi
4.0K	RDXVA2016/fehm_TA16_V1_40m/zones/260pond_patch.gmv
20K	RDXVA2016/fehm_TA16_V1_40m/zones/get_260pond.out.txt
12K	RDXVA2016/fehm_TA16_V1_40m/zones/wells_lines_all.inp
0	RDXVA2016/fehm_TA16_V1_40m/zones/pond260.zonn
18M	RDXVA2016/fehm_TA16_V1_40m/zones/tet_pond.gmv
4.0K	RDXVA2016/fehm_TA16_V1_40m/zones/get_260pond.lgi
48K	RDXVA2016/fehm_TA16_V1_40m/zones/view_CdV_polys.gmv
4.0K	RDXVA2016/fehm_TA16_V1_40m/zones/ta16_source01_cdv.inp
28K	RDXVA2016/fehm_TA16_V1_40m/zones/cdv_ply_fence.gmv
4.0K	RDXVA2016/fehm_TA16_V1_40m/zones/canyon_cdv.zonn
18M	RDXVA2016/fehm_TA16_V1_40m/zones/tet_canyon_cdv.gmv
4.0K	RDXVA2016/fehm_TA16_V1_40m/zones/get_canyon_cdv.lgi
28K	RDXVA2016/fehm_TA16_V1_40m/zones/get_canyon_cdv.out.txt
4.0K	RDXVA2016/fehm_TA16_V1_40m/zones/write_ev_points.lgi
4.4M	RDXVA2016/fehm_TA16_V1_40m/zones/hex_pts.dat
4.2M	RDXVA2016/fehm_TA16_V1_40m/zones/hex_elem.dat
2.9M	RDXVA2016/fehm_TA16_V1_40m/zones/hex_elem_ev_xyzid.dat
3.2M	RDXVA2016/fehm_TA16_V1_40m/zones/hex_pts_ev_xyzid.dat
4.9M	RDXVA2016/fehm_TA16_V1_40m/zones/hex_ev_mat.gmv
656K	RDXVA2016/fehm_TA16_V1_40m/zones/hex_ev_mat_material.zone
16M	RDXVA2016/fehm_TA16_V1_40m/zones/hex_ev_mat.inp
7.7M	RDXVA2016/fehm_TA16_V1_40m/zones/hex_full_ev_mat.gmv
7.1M	RDXVA2016/fehm_TA16_V1_40m/zones/hex_ev_raw.gmv
8.0K	RDXVA2016/fehm_TA16_V1_40m/zones/mat16.gmvattr
36K	RDXVA2016/fehm_TA16_V1_40m/zones/get_ev_zones.out.txt
13M	RDXVA2016/fehm_TA16_V1_40m/zones/view_tet_mat_wells.gmv
4.0K	RDXVA2016/fehm_TA16_V1_40m/zones/ta16_source02_260pond.gmv
4.0K	RDXVA2016/fehm_TA16_V1_40m/zones/ta16_source02_260pond.inp
14M	RDXVA2016/fehm_TA16_V1_40m/zones/tet_ev_mat2.gmv
8.0K	RDXVA2016/fehm_TA16_V1_40m/zones/mat14.gmvattr
14M	RDXVA2016/fehm_TA16_V1_40m/zones/tet_ev_raw.gmv
25M	RDXVA2016/fehm_TA16_V1_40m/zones/tet_ev_mat.inp
656K	RDXVA2016/fehm_TA16_V1_40m/zones/tet_ev_raw_material.zone
8.0K	RDXVA2016/fehm_TA16_V1_40m/zones/tet_wp2_wtrpts.gmvattr
360K	RDXVA2016/fehm_TA16_V1_40m/zones/wtr_UPZ2_blw_addNW2.zonn
36K	RDXVA2016/fehm_TA16_V1_40m/zones/get_wtr_UPZ2_nw2.out.txt
50M	RDXVA2016/fehm_TA16_V1_40m/zones/merge_tet_UPZ2surfs_nw2.gmv
88K	RDXVA2016/fehm_TA16_V1_40m/zones/wtr_UPZ2_in_addNW2.zonn
13M	RDXVA2016/fehm_TA16_V1_40m/zones/tet_perched_wtr_upz2_nw2.gmv
4.0K	RDXVA2016/fehm_TA16_V1_40m/zones/get_wtr_UPZ2_nw2.lgi
12K	RDXVA2016/fehm_TA16_V1_40m/zones/small_tets.gmvattr
17M	RDXVA2016/fehm_TA16_V1_40m/zones/tet_perched_all.gmv
8.0K	RDXVA2016/fehm_TA16_V1_40m/zones/tet_allwtr.gmvattr
4.0K	RDXVA2016/fehm_TA16_V1_40m/zones/gmvrc
13M	RDXVA2016/fehm_TA16_V1_40m/zones/tet_perched_wtr_upz2.gmv
4.0K	RDXVA2016/fehm_TA16_V1_40m/zones/view_wtr_perched_zones.lgi
4.0K	RDXVA2016/fehm_TA16_V1_40m/zones/get_wtr_UPZ2_Tpf3s.lgi
28K	RDXVA2016/fehm_TA16_V1_40m/zones/get_wtr_UPZ2_nw.out.txt
13M	RDXVA2016/fehm_TA16_V1_40m/zones/tet_perched_wtr_upz2_nw.gmv
4.0K	RDXVA2016/fehm_TA16_V1_40m/zones/get_wtr_UPZ2_nw.lgi
4.0K	RDXVA2016/fehm_TA16_V1_40m/zones/RUNS
8.0K	RDXVA2016/fehm_TA16_V1_40m/zones/view_wtr_surfs.gmvattr
15M	RDXVA2016/fehm_TA16_V1_40m/zones/view_wtr_surfs.gmv
4.0K	RDXVA2016/fehm_TA16_V1_40m/zones/merge_wtr_surfs.lgi
4.0K	RDXVA2016/fehm_TA16_V1_40m/zones/CdV_polyline.inp
4.0K	RDXVA2016/fehm_TA16_V1_40m/zones/xy2lines.awk
352K	RDXVA2016/fehm_TA16_V1_40m/zones/view_polygon.gmv
48K	RDXVA2016/fehm_TA16_V1_40m/zones/CdV_ply_fence.gmv
40K	RDXVA2016/fehm_TA16_V1_40m/zones/CdV_quad_patch.gmv
4.0K	RDXVA2016/fehm_TA16_V1_40m/zones/mk_CdV_fence.lgi
4.0K	RDXVA2016/fehm_TA16_V1_40m/zones/get_canyon_bot.lgi
4.0K	RDXVA2016/fehm_TA16_V1_40m/zones/canyon_bot.zonn
18M	RDXVA2016/fehm_TA16_V1_40m/zones/tet_canyon.gmv
15M	RDXVA2016/fehm_TA16_V1_40m/zones/tet_wtr.gmv
496K	RDXVA2016/fehm_TA16_V1_40m/zones/wtr_abv.zonn
8.0K	RDXVA2016/fehm_TA16_V1_40m/zones/README.txt
164K	RDXVA2016/fehm_TA16_V1_40m/zones/wtr_blw.zonn
16M	RDXVA2016/fehm_TA16_V1_40m/zones/tet_outside_wtr.gmv
16K	RDXVA2016/fehm_TA16_V1_40m/zones/wtr_blw_bot.zonn
4.0K	RDXVA2016/fehm_TA16_V1_40m/zones/wtr_blw_west.zonn
12K	RDXVA2016/fehm_TA16_V1_40m/zones/wtr_blw_south.zonn
4.0K	RDXVA2016/fehm_TA16_V1_40m/zones/wtr_blw_east.zonn
8.0K	RDXVA2016/fehm_TA16_V1_40m/zones/wtr_blw_north.zonn
4.0K	RDXVA2016/fehm_TA16_V1_40m/zones/wtr_blw_ne.zonn
4.0K	RDXVA2016/fehm_TA16_V1_40m/zones/get_wtr_zones.lgi
12K	RDXVA2016/fehm_TA16_V1_40m/zones/view_tet_wtr.gmvattr
13M	RDXVA2016/fehm_TA16_V1_40m/zones/tet_perched_wtr.gmv
364K	RDXVA2016/fehm_TA16_V1_40m/zones/wtr_UPZ2_blw.zonn
204K	RDXVA2016/fehm_TA16_V1_40m/zones/wtr_LPZ1_blw_v1.zonn
19M	RDXVA2016/fehm_TA16_V1_40m/zones/tet_volumes.gmv
8.0K	RDXVA2016/fehm_TA16_V1_40m/zones/tet_wp2_vorvol.gmvattr
18M	RDXVA2016/fehm_TA16_V1_40m/zones/tet_wp2_settets.gmv
14M	RDXVA2016/fehm_TA16_V1_40m/zones/tet_wp2_surfmesh.gmv
8.0K	RDXVA2016/fehm_TA16_V1_40m/zones/tet_wp2_settets.gmvattr
8.0K	RDXVA2016/fehm_TA16_V1_40m/zones/tet_wp2_settets_z.gmvattr
8.0K	RDXVA2016/fehm_TA16_V1_40m/zones/tet_wtrtable.gmvattr
8.0K	RDXVA2016/fehm_TA16_V1_40m/zones/tetmat10.gmvattr
44K	RDXVA2016/fehm_TA16_V1_40m/zones/get_tet_mat.out.txt
8.0K	RDXVA2016/fehm_TA16_V1_40m/zones/get_tet_mat.log.txt
16K	RDXVA2016/fehm_TA16_V1_40m/zones/out_top.zonn
16K	RDXVA2016/fehm_TA16_V1_40m/zones/out_bottom.zonn
8.0K	RDXVA2016/fehm_TA16_V1_40m/zones/out_west_left.zonn
44K	RDXVA2016/fehm_TA16_V1_40m/zones/out_south_front.zonn
4.0K	RDXVA2016/fehm_TA16_V1_40m/zones/out_east_right.zonn
32K	RDXVA2016/fehm_TA16_V1_40m/zones/out_north_back.zonn
16K	RDXVA2016/fehm_TA16_V1_40m/zones/out_north_east.zonn
15M	RDXVA2016/fehm_TA16_V1_40m/zones/tet_outside_pts.gmv
33M	RDXVA2016/fehm_TA16_V1_40m/zones/tet_outside_pts.inp
15M	RDXVA2016/fehm_TA16_V1_40m/zones/tet_outside.gmv
33M	RDXVA2016/fehm_TA16_V1_40m/zones/tet_outside.inp
4.0K	RDXVA2016/fehm_TA16_V1_40m/zones/get_outside_bndry.lgi
36K	RDXVA2016/fehm_TA16_V1_40m/zones/get_outside_bndry.out.txt
8.0K	RDXVA2016/fehm_TA16_V1_40m/zones/get_outside_bndry.log.txt
4.0K	RDXVA2016/fehm_TA16_V1_40m/zones/wtr_LPZ1_in_v1.zonn
224K	RDXVA2016/fehm_TA16_V1_40m/zones/wtr_LPZ1_5pts_reset.jpg
4.0K	RDXVA2016/fehm_TA16_V1_40m/zones/wtr_LPZ1_in_v2.zonn
4.0K	RDXVA2016/fehm_TA16_V1_40m/zones/wtr_LPZ1_in.zonn
204K	RDXVA2016/fehm_TA16_V1_40m/zones/wtr_LPZ1_blw.zonn
204K	RDXVA2016/fehm_TA16_V1_40m/zones/wtr_LPZ1_blw_v2.zonn
164K	RDXVA2016/fehm_TA16_V1_40m/zones/test_p41.zonn
36K	RDXVA2016/fehm_TA16_V1_40m/zones/wtr_UPZ2_Tpf3s.zonn
4.0K	RDXVA2016/fehm_TA16_V1_40m/zones/wtr_UPZ2_Tpf3s_win.zonn
16K	RDXVA2016/fehm_TA16_V1_40m/zones/get_wtr_UPZ2_Tpf3s.out.txt
340K	RDXVA2016/fehm_TA16_V1_40m/zones/pts_UPZ2_Tpf3s.gmv
4.0K	RDXVA2016/fehm_TA16_V1_40m/zones/view_wtrs.lgi
17M	RDXVA2016/fehm_TA16_V1_40m/zones/view__attrib_wells.gmv
4.0K	RDXVA2016/fehm_TA16_V1_40m/zones/wtr_UPZ2_Tpf3s_intr.zonn
14M	RDXVA2016/fehm_TA16_V1_40m/zones/tet_Tpfs.gmv
4.0K	RDXVA2016/fehm_TA16_V1_40m/zones/get_wtr_UPZ1.lgi
28K	RDXVA2016/fehm_TA16_V1_40m/zones/get_wtr_UPZ1.out.txt
368K	RDXVA2016/fehm_TA16_V1_40m/zones/wtr_UPZ1_blw.zonn
96K	RDXVA2016/fehm_TA16_V1_40m/zones/wtr_UPZ1_in.zonn
13M	RDXVA2016/fehm_TA16_V1_40m/zones/tet_perched_wtr_upz1.gmv
28K	RDXVA2016/fehm_TA16_V1_40m/zones/get_wtr_LPZ1.out.txt
4.0K	RDXVA2016/fehm_TA16_V1_40m/zones/get_wtr_LPZ1.lgi
13M	RDXVA2016/fehm_TA16_V1_40m/zones/tet_perched_wtr_lpz1.gmv
4.0K	RDXVA2016/fehm_TA16_V1_40m/zones/CdV_polygon_m.dat
4.0K	RDXVA2016/fehm_TA16_V1_40m/zones/CdV_polygon_ft.dat
594M	RDXVA2016/fehm_TA16_V1_40m/zones
360K	RDXVA2016/fehm_TA16_V1_40m/wtr_UPZ2_blw_addNW2.zonn
88K	RDXVA2016/fehm_TA16_V1_40m/wtr_UPZ2_in_addNW2.zonn
801M	RDXVA2016/fehm_TA16_V1_40m
8.0K	RDXVA2016/hex_polyA_V1_40m/stack.lgi
4.0K	RDXVA2016/hex_polyA_V1_40m/RUNS
4.0K	RDXVA2016/hex_polyA_V1_40m/crop_quad.lgi
4.0K	RDXVA2016/hex_polyA_V1_40m/interp_ev.lgi
4.0K	RDXVA2016/hex_polyA_V1_40m/merge_layers.lgi
8.0K	RDXVA2016/hex_polyA_V1_40m/wells_allpts.inp
4.0K	RDXVA2016/hex_polyA_V1_40m/stack_almost.lgi
4.0K	RDXVA2016/hex_polyA_V1_40m/link_surfs.scr
4.0K	RDXVA2016/hex_polyA_V1_40m/mk_surfs.scr
4.0K	RDXVA2016/hex_polyA_V1_40m/mk_w_surfs.scr
124K	RDXVA2016/hex_polyA_V1_40m/poly_fence_upper.inp
4.0K	RDXVA2016/hex_polyA_V1_40m/wells2avs_allpoint.awk
376K	RDXVA2016/hex_polyA_V1_40m/topo_surf.inp
8.0K	RDXVA2016/hex_polyA_V1_40m/outx3dgen
4.0K	RDXVA2016/hex_polyA_V1_40m/logx3dgen
376K	RDXVA2016/hex_polyA_V1_40m/00_bottom.inp
16M	RDXVA2016/hex_polyA_V1_40m/stack_layers.gmv
376K	RDXVA2016/hex_polyA_V1_40m/16_Tpt_surf.inp
360K	RDXVA2016/hex_polyA_V1_40m/16_Tpt_surf.gmv
12K	RDXVA2016/hex_polyA_V1_40m/16_Tpt_ev_interp.out.txt
376K	RDXVA2016/hex_polyA_V1_40m/15_Tjfp_surf.inp
360K	RDXVA2016/hex_polyA_V1_40m/15_Tjfp_surf.gmv
12K	RDXVA2016/hex_polyA_V1_40m/15_Tjfp_ev_interp.out.txt
376K	RDXVA2016/hex_polyA_V1_40m/06_Tb2b_surf.inp
360K	RDXVA2016/hex_polyA_V1_40m/06_Tb2b_surf.gmv
12K	RDXVA2016/hex_polyA_V1_40m/06_Tb2b_ev_interp.out.txt
376K	RDXVA2016/hex_polyA_V1_40m/07_Tb2_surf.inp
360K	RDXVA2016/hex_polyA_V1_40m/07_Tb2_surf.gmv
12K	RDXVA2016/hex_polyA_V1_40m/07_Tb2_ev_interp.out.txt
376K	RDXVA2016/hex_polyA_V1_40m/10_Tcar_surf.inp
360K	RDXVA2016/hex_polyA_V1_40m/10_Tcar_surf.gmv
12K	RDXVA2016/hex_polyA_V1_40m/10_Tcar_ev_interp.out.txt
376K	RDXVA2016/hex_polyA_V1_40m/24_Tpf2_surf.inp
360K	RDXVA2016/hex_polyA_V1_40m/24_Tpf2_surf.gmv
12K	RDXVA2016/hex_polyA_V1_40m/24_Tpf2_ev_interp.out.txt
376K	RDXVA2016/hex_polyA_V1_40m/04_Tb1b_surf.inp
360K	RDXVA2016/hex_polyA_V1_40m/04_Tb1b_surf.gmv
12K	RDXVA2016/hex_polyA_V1_40m/04_Tb1b_ev_interp.out.txt
376K	RDXVA2016/hex_polyA_V1_40m/05_Tb1_surf.inp
360K	RDXVA2016/hex_polyA_V1_40m/05_Tb1_surf.gmv
12K	RDXVA2016/hex_polyA_V1_40m/05_Tb1_ev_interp.out.txt
376K	RDXVA2016/hex_polyA_V1_40m/08_Ttc_surf.inp
360K	RDXVA2016/hex_polyA_V1_40m/08_Ttc_surf.gmv
12K	RDXVA2016/hex_polyA_V1_40m/08_Ttc_ev_interp.out.txt
376K	RDXVA2016/hex_polyA_V1_40m/20_Tvt2_surf.inp
360K	RDXVA2016/hex_polyA_V1_40m/20_Tvt2_surf.gmv
12K	RDXVA2016/hex_polyA_V1_40m/20_Tvt2_ev_interp.out.txt
376K	RDXVA2016/hex_polyA_V1_40m/22_Qta_surf.inp
360K	RDXVA2016/hex_polyA_V1_40m/22_Qta_surf.gmv
12K	RDXVA2016/hex_polyA_V1_40m/22_Qta_ev_interp.out.txt
376K	RDXVA2016/hex_polyA_V1_40m/26_Tpf3_surf.inp
360K	RDXVA2016/hex_polyA_V1_40m/26_Tpf3_surf.gmv
12K	RDXVA2016/hex_polyA_V1_40m/26_Tpf3_ev_interp.out.txt
376K	RDXVA2016/hex_polyA_V1_40m/27_Qbog_surf.inp
360K	RDXVA2016/hex_polyA_V1_40m/27_Qbog_surf.gmv
12K	RDXVA2016/hex_polyA_V1_40m/27_Qbog_ev_interp.out.txt
376K	RDXVA2016/hex_polyA_V1_40m/28_Qbof_surf.inp
360K	RDXVA2016/hex_polyA_V1_40m/28_Qbof_surf.gmv
12K	RDXVA2016/hex_polyA_V1_40m/28_Qbof_ev_interp.out.txt
376K	RDXVA2016/hex_polyA_V1_40m/29_Qct_surf.inp
360K	RDXVA2016/hex_polyA_V1_40m/29_Qct_surf.gmv
12K	RDXVA2016/hex_polyA_V1_40m/29_Qct_ev_interp.out.txt
376K	RDXVA2016/hex_polyA_V1_40m/30_Qbtt_surf.inp
360K	RDXVA2016/hex_polyA_V1_40m/30_Qbtt_surf.gmv
12K	RDXVA2016/hex_polyA_V1_40m/30_Qbtt_ev_interp.out.txt
376K	RDXVA2016/hex_polyA_V1_40m/31_Qbt1g_surf.inp
376K	RDXVA2016/hex_polyA_V1_40m/34_Qbt2_surf.inp
360K	RDXVA2016/hex_polyA_V1_40m/31_Qbt1g_surf.gmv
12K	RDXVA2016/hex_polyA_V1_40m/31_Qbt1g_ev_interp.out.txt
376K	RDXVA2016/hex_polyA_V1_40m/32_Qbt1vc_surf.inp
360K	RDXVA2016/hex_polyA_V1_40m/32_Qbt1vc_surf.gmv
12K	RDXVA2016/hex_polyA_V1_40m/32_Qbt1vc_ev_interp.out.txt
376K	RDXVA2016/hex_polyA_V1_40m/33_Qbt1vu_surf.inp
360K	RDXVA2016/hex_polyA_V1_40m/33_Qbt1vu_surf.gmv
12K	RDXVA2016/hex_polyA_V1_40m/33_Qbt1vu_ev_interp.out.txt
360K	RDXVA2016/hex_polyA_V1_40m/34_Qbt2_surf.gmv
12K	RDXVA2016/hex_polyA_V1_40m/34_Qbt2_ev_interp.out.txt
376K	RDXVA2016/hex_polyA_V1_40m/35_Qbt3_surf.inp
360K	RDXVA2016/hex_polyA_V1_40m/35_Qbt3_surf.gmv
12K	RDXVA2016/hex_polyA_V1_40m/35_Qbt3_ev_interp.out.txt
376K	RDXVA2016/hex_polyA_V1_40m/36_Qbt3t_surf.inp
360K	RDXVA2016/hex_polyA_V1_40m/36_Qbt3t_surf.gmv
12K	RDXVA2016/hex_polyA_V1_40m/36_Qbt3t_ev_interp.out.txt
376K	RDXVA2016/hex_polyA_V1_40m/37_Qbt4_surf.inp
360K	RDXVA2016/hex_polyA_V1_40m/37_Qbt4_surf.gmv
12K	RDXVA2016/hex_polyA_V1_40m/37_Qbt4_ev_interp.out.txt
360K	RDXVA2016/hex_polyA_V1_40m/40_Topo_surf.gmv
12K	RDXVA2016/hex_polyA_V1_40m/40_Topo_ev_interp.out.txt
376K	RDXVA2016/hex_polyA_V1_40m/G2_Qbof_surf.inp
360K	RDXVA2016/hex_polyA_V1_40m/G2_Qbof_surf.gmv
12K	RDXVA2016/hex_polyA_V1_40m/G2_Qbof_ev_interp.out.txt
376K	RDXVA2016/hex_polyA_V1_40m/G3_Qbof_surf.inp
360K	RDXVA2016/hex_polyA_V1_40m/G3_Qbof_surf.gmv
12K	RDXVA2016/hex_polyA_V1_40m/G3_Qbof_ev_interp.out.txt
4.0K	RDXVA2016/hex_polyA_V1_40m/connect/tet_connect.lgi
11M	RDXVA2016/hex_polyA_V1_40m/connect/stack.inp
4.0K	RDXVA2016/hex_polyA_V1_40m/connect/RUNS
128K	RDXVA2016/hex_polyA_V1_40m/connect/Xtet_conn_v1.out.txt
72K	RDXVA2016/hex_polyA_V1_40m/connect/outx3dgen
8.0K	RDXVA2016/hex_polyA_V1_40m/connect/logx3dgen
6.2M	RDXVA2016/hex_polyA_V1_40m/connect/stack_surf_colors.gmv
14M	RDXVA2016/hex_polyA_V1_40m/connect/stack_surfmesh.gmv
2.3M	RDXVA2016/hex_polyA_V1_40m/connect/points_for_tet0.gmv
4.4M	RDXVA2016/hex_polyA_V1_40m/connect/points_for_tet0.inp
15M	RDXVA2016/hex_polyA_V1_40m/connect/tmp_connect.gmv
18M	RDXVA2016/hex_polyA_V1_40m/connect/tmp_color.gmv
4.3M	RDXVA2016/hex_polyA_V1_40m/connect/tet_full_surfmesh.gmv
28M	RDXVA2016/hex_polyA_V1_40m/connect/tmp.stor
15M	RDXVA2016/hex_polyA_V1_40m/connect/tet_full.gmv
33M	RDXVA2016/hex_polyA_V1_40m/connect/tet_full.inp
14M	RDXVA2016/hex_polyA_V1_40m/connect/tet_trunc.gmv
31M	RDXVA2016/hex_polyA_V1_40m/connect/tet_trunc.inp
13M	RDXVA2016/hex_polyA_V1_40m/connect/tet_trunc_surfmesh.gmv
116K	RDXVA2016/hex_polyA_V1_40m/connect/tet_connect.out.txt
56K	RDXVA2016/hex_polyA_V1_40m/connect/pyramid/run_stor.out.txt
4.0K	RDXVA2016/hex_polyA_V1_40m/connect/pyramid/RUNS
4.0K	RDXVA2016/hex_polyA_V1_40m/connect/pyramid/reformat.awk
4.0K	RDXVA2016/hex_polyA_V1_40m/connect/pyramid/run_stor.lgi
4.4M	RDXVA2016/hex_polyA_V1_40m/connect/pyramid/points_for_tet.node
3.1M	RDXVA2016/hex_polyA_V1_40m/connect/pyramid/points_for_tet.1.node
14M	RDXVA2016/hex_polyA_V1_40m/connect/pyramid/points_for_tet.1.ele
15M	RDXVA2016/hex_polyA_V1_40m/connect/pyramid/points_for_tet.1.connectivity
19M	RDXVA2016/hex_polyA_V1_40m/connect/pyramid/tet_zero.inp
52K	RDXVA2016/hex_polyA_V1_40m/connect/pyramid/outx3dgen
8.0K	RDXVA2016/hex_polyA_V1_40m/connect/pyramid/logx3dgen
15M	RDXVA2016/hex_polyA_V1_40m/connect/pyramid/tet_zero.gmv
14M	RDXVA2016/hex_polyA_V1_40m/connect/pyramid/tet_full_surfmesh.gmv
28M	RDXVA2016/hex_polyA_V1_40m/connect/pyramid/tet.stor
17M	RDXVA2016/hex_polyA_V1_40m/connect/pyramid/tet_full.gmv
29M	RDXVA2016/hex_polyA_V1_40m/connect/pyramid/tet_full.inp
16M	RDXVA2016/hex_polyA_V1_40m/connect/pyramid/tet_trunc.gmv
29M	RDXVA2016/hex_polyA_V1_40m/connect/pyramid/tet_trunc.inp
13M	RDXVA2016/hex_polyA_V1_40m/connect/pyramid/tet_trunc_surfmesh.gmv
8.0K	RDXVA2016/hex_polyA_V1_40m/connect/pyramid/run_stor.log.txt
4.0K	RDXVA2016/hex_polyA_V1_40m/connect/pyramid/old_pyramid/RUNS
3.1M	RDXVA2016/hex_polyA_V1_40m/connect/pyramid/old_pyramid/points_for_tet.1.node
14M	RDXVA2016/hex_polyA_V1_40m/connect/pyramid/old_pyramid/points_for_tet.1.ele
17M	RDXVA2016/hex_polyA_V1_40m/connect/pyramid/old_pyramid
4.0K	RDXVA2016/hex_polyA_V1_40m/connect/pyramid/ck_stor.lgi
4.0K	RDXVA2016/hex_polyA_V1_40m/connect/pyramid/scale_pyramid/RUNS
8.0K	RDXVA2016/hex_polyA_V1_40m/connect/pyramid/scale_pyramid
43M	RDXVA2016/hex_polyA_V1_40m/connect/pyramid/ck_tet_full.gmv
159M	RDXVA2016/hex_polyA_V1_40m/connect/pyramid/ck_tet_full.inp
4.0K	RDXVA2016/hex_polyA_V1_40m/connect/pyramid/gmvrc
52K	RDXVA2016/hex_polyA_V1_40m/connect/pyramid/ck_tet.out.txt
429M	RDXVA2016/hex_polyA_V1_40m/connect/pyramid
8.0K	RDXVA2016/hex_polyA_V1_40m/connect/tet_zero.gmvattr
4.0K	RDXVA2016/hex_polyA_V1_40m/connect/ck_stor.lgi
28M	RDXVA2016/hex_polyA_V1_40m/connect/tet.stor
43M	RDXVA2016/hex_polyA_V1_40m/connect/ck_tet_full.gmv
161M	RDXVA2016/hex_polyA_V1_40m/connect/ck_tet_full.inp
865M	RDXVA2016/hex_polyA_V1_40m/connect
2.1M	RDXVA2016/hex_polyA_V1_40m/merge_layers.gmv
8.0K	RDXVA2016/hex_polyA_V1_40m/merge_layers.gmvattr
932K	RDXVA2016/hex_polyA_V1_40m/images/layers_all_back_3x.rgb
448K	RDXVA2016/hex_polyA_V1_40m/images/layers_upper_back_3x.rgb
492K	RDXVA2016/hex_polyA_V1_40m/images/layers_upper_front_3x.rgb
416K	RDXVA2016/hex_polyA_V1_40m/images/layers_all_front_3x.rgb
920K	RDXVA2016/hex_polyA_V1_40m/images/stack_back_wpu2.rgb
576K	RDXVA2016/hex_polyA_V1_40m/images/stack_ymin_wpu2.rgb
728K	RDXVA2016/hex_polyA_V1_40m/images/stack_yR25_wpu2.rgb
696K	RDXVA2016/hex_polyA_V1_40m/images/stack_yCDV9-1i_wpu2.rgb
604K	RDXVA2016/hex_polyA_V1_40m/images/stack_ymax_wpu2.rgb
612K	RDXVA2016/hex_polyA_V1_40m/images/stack_NSR26_wpu_all.rgb
176K	RDXVA2016/hex_polyA_V1_40m/images/connect_v2b.png
72K	RDXVA2016/hex_polyA_V1_40m/images/connect_v2b_TN.PNG
228K	RDXVA2016/hex_polyA_V1_40m/images/layers_all_back_3x.png
152K	RDXVA2016/hex_polyA_V1_40m/images/layers_all_back_3x_TN.PNG
172K	RDXVA2016/hex_polyA_V1_40m/images/layers_all_front_3x.png
76K	RDXVA2016/hex_polyA_V1_40m/images/layers_all_front_3x_TN.PNG
140K	RDXVA2016/hex_polyA_V1_40m/images/layers_upper_back_3x.png
64K	RDXVA2016/hex_polyA_V1_40m/images/layers_upper_back_3x_TN.PNG
204K	RDXVA2016/hex_polyA_V1_40m/images/layers_upper_front_3x.png
68K	RDXVA2016/hex_polyA_V1_40m/images/layers_upper_front_3x_TN.PNG
188K	RDXVA2016/hex_polyA_V1_40m/images/stack_back_wpu1.png
132K	RDXVA2016/hex_polyA_V1_40m/images/stack_back_wpu1_TN.PNG
3.4M	RDXVA2016/hex_polyA_V1_40m/images/stack_back_wpu2.png
180K	RDXVA2016/hex_polyA_V1_40m/images/stack_back_wpu2_TN.PNG
176K	RDXVA2016/hex_polyA_V1_40m/images/stack_NSR25_wpu_all.png
144K	RDXVA2016/hex_polyA_V1_40m/images/stack_NSR25_wpu_all_TN.PNG
80K	RDXVA2016/hex_polyA_V1_40m/images/stack_NSR26_wpu_all.png
8.0K	RDXVA2016/hex_polyA_V1_40m/images/gallery.html
804K	RDXVA2016/hex_polyA_V1_40m/images/Xconnect_v1.rgb
1.3M	RDXVA2016/hex_polyA_V1_40m/images/Xconnect_v1b.rgb
1.2M	RDXVA2016/hex_polyA_V1_40m/images/Xconnect_v1c.rgb
1.1M	RDXVA2016/hex_polyA_V1_40m/images/Xconnect_v2.rgb
404K	RDXVA2016/hex_polyA_V1_40m/images/connect_v2b.rgb
4.4M	RDXVA2016/hex_polyA_V1_40m/images/Xconnect_v1b.png
100K	RDXVA2016/hex_polyA_V1_40m/images/stack_NSR26_wpu_all_TN.PNG
3.9M	RDXVA2016/hex_polyA_V1_40m/images/Xconnect_v1c.png
168K	RDXVA2016/hex_polyA_V1_40m/images/stack_NSR63_wpu_all.png
136K	RDXVA2016/hex_polyA_V1_40m/images/Xconnect_v1.png
152K	RDXVA2016/hex_polyA_V1_40m/images/stack_NSR63_wpu_all_TN.PNG
212K	RDXVA2016/hex_polyA_V1_40m/images/Xconnect_v2.png
152K	RDXVA2016/hex_polyA_V1_40m/images/stack_surfs_wpu1.png
1.4M	RDXVA2016/hex_polyA_V1_40m/images/tet_connect.rgb
52K	RDXVA2016/hex_polyA_V1_40m/images/stack_surfs_wpu1_TN.PNG
336K	RDXVA2016/hex_polyA_V1_40m/images/stack_surfs_wpu2.rgb
368K	RDXVA2016/hex_polyA_V1_40m/images/stack_surfs_wpu1.rgb
1.2M	RDXVA2016/hex_polyA_V1_40m/images/stack_back_wpu1.rgb
112K	RDXVA2016/hex_polyA_V1_40m/images/stack_surfs_wpu2.png
52K	RDXVA2016/hex_polyA_V1_40m/images/stack_surfs_wpu2_TN.PNG
108K	RDXVA2016/hex_polyA_V1_40m/images/stack_west_wpu_allb.png
56K	RDXVA2016/hex_polyA_V1_40m/images/stack_west_wpu_allb_TN.PNG
68K	RDXVA2016/hex_polyA_V1_40m/images/stack_west_wpu_all.png
48K	RDXVA2016/hex_polyA_V1_40m/images/stack_west_wpu_all_TN.PNG
1.1M	RDXVA2016/hex_polyA_V1_40m/images/stack_ymin_wpu1.rgb
1.2M	RDXVA2016/hex_polyA_V1_40m/images/stack_yR25_wpu1.rgb
948K	RDXVA2016/hex_polyA_V1_40m/images/stack_yCDV9-1i_wpu1.rgb
732K	RDXVA2016/hex_polyA_V1_40m/images/stack_ymax_wpu1.rgb
212K	RDXVA2016/hex_polyA_V1_40m/images/stack_ymax_wpu_all.rgb
272K	RDXVA2016/hex_polyA_V1_40m/images/stack_yCDV9-1i_wpu_all.rgb
316K	RDXVA2016/hex_polyA_V1_40m/images/stack_yR25_wpu_all.rgb
312K	RDXVA2016/hex_polyA_V1_40m/images/stack_ymin_wpu_all.rgb
308K	RDXVA2016/hex_polyA_V1_40m/images/stack_west_wpu_all.rgb
308K	RDXVA2016/hex_polyA_V1_40m/images/stack_west_wpu_allb.rgb
112K	RDXVA2016/hex_polyA_V1_40m/images/stack_yCDV9-1i_wpu1.png
128K	RDXVA2016/hex_polyA_V1_40m/images/stack_yCDV9-1i_wpu1_TN.PNG
2.4M	RDXVA2016/hex_polyA_V1_40m/images/stack_yCDV9-1i_wpu2.png
156K	RDXVA2016/hex_polyA_V1_40m/images/stack_yCDV9-1i_wpu2_TN.PNG
80K	RDXVA2016/hex_polyA_V1_40m/images/stack_yCDV9-1i_wpu_all.png
56K	RDXVA2016/hex_polyA_V1_40m/images/stack_yCDV9-1i_wpu_all_TN.PNG
68K	RDXVA2016/hex_polyA_V1_40m/images/stack_ymax_wpu1.png
104K	RDXVA2016/hex_polyA_V1_40m/images/stack_ymax_wpu1_TN.PNG
2.2M	RDXVA2016/hex_polyA_V1_40m/images/stack_ymax_wpu2.png
124K	RDXVA2016/hex_polyA_V1_40m/images/stack_ymax_wpu2_TN.PNG
20K	RDXVA2016/hex_polyA_V1_40m/images/stack_ymax_wpu_all.png
40K	RDXVA2016/hex_polyA_V1_40m/images/stack_ymax_wpu_all_TN.PNG
196K	RDXVA2016/hex_polyA_V1_40m/images/stack_ymin_wpu1.png
152K	RDXVA2016/hex_polyA_V1_40m/images/stack_ymin_wpu1_TN.PNG
1.9M	RDXVA2016/hex_polyA_V1_40m/images/stack_ymin_wpu2.png
152K	RDXVA2016/hex_polyA_V1_40m/images/stack_ymin_wpu2_TN.PNG
100K	RDXVA2016/hex_polyA_V1_40m/images/stack_ymin_wpu_all.png
64K	RDXVA2016/hex_polyA_V1_40m/images/stack_ymin_wpu_all_TN.PNG
152K	RDXVA2016/hex_polyA_V1_40m/images/stack_yR25_wpu1.png
144K	RDXVA2016/hex_polyA_V1_40m/images/stack_yR25_wpu1_TN.PNG
976K	RDXVA2016/hex_polyA_V1_40m/images/tet_wtrtop_a.rgb
8.0K	RDXVA2016/hex_polyA_V1_40m/images/view_wpsurfs.html
972K	RDXVA2016/hex_polyA_V1_40m/images/stack_NSR63_wpu_all.rgb
2.6M	RDXVA2016/hex_polyA_V1_40m/images/stack_yR25_wpu2.png
164K	RDXVA2016/hex_polyA_V1_40m/images/stack_yR25_wpu2_TN.PNG
92K	RDXVA2016/hex_polyA_V1_40m/images/stack_yR25_wpu_all.png
1.7M	RDXVA2016/hex_polyA_V1_40m/images/tet_layers_front.rgb
940K	RDXVA2016/hex_polyA_V1_40m/images/stack_NSR25_wpu_all.rgb
60K	RDXVA2016/hex_polyA_V1_40m/images/stack_yR25_wpu_all_TN.PNG
236K	RDXVA2016/hex_polyA_V1_40m/images/Xconnect_v1b_TN.PNG
168K	RDXVA2016/hex_polyA_V1_40m/images/Xconnect_v1c_TN.PNG
132K	RDXVA2016/hex_polyA_V1_40m/images/Xconnect_v1_TN.PNG
148K	RDXVA2016/hex_polyA_V1_40m/images/Xconnect_v2_TN.PNG
1.5M	RDXVA2016/hex_polyA_V1_40m/images/tet_layers_back.rgb
1.9M	RDXVA2016/hex_polyA_V1_40m/images/tet_layers_front_w.rgb
424K	RDXVA2016/hex_polyA_V1_40m/images/tet_wtrtop_b.rgb
376K	RDXVA2016/hex_polyA_V1_40m/images/tet_wtrtop_d.rgb
476K	RDXVA2016/hex_polyA_V1_40m/images/tet_wtrtop_c.rgb
372K	RDXVA2016/hex_polyA_V1_40m/images/tet_Tpftop.rgb
480K	RDXVA2016/hex_polyA_V1_40m/images/tet_Qboftop.rgb
624K	RDXVA2016/hex_polyA_V1_40m/images/tet_top.rgb
1.1M	RDXVA2016/hex_polyA_V1_40m/images/tet_elev.rgb
58M	RDXVA2016/hex_polyA_V1_40m/images
64K	RDXVA2016/hex_polyA_V1_40m/merge_layers.out.txt
12M	RDXVA2016/hex_polyA_V1_40m/generic.inp
376K	RDXVA2016/hex_polyA_V1_40m/wtr_quad_surf.inp
360K	RDXVA2016/hex_polyA_V1_40m/wtr_quad_surf.gmv
376K	RDXVA2016/hex_polyA_V1_40m/topo_up30_surf.inp
376K	RDXVA2016/hex_polyA_V1_40m/qbof_up2_surf.inp
376K	RDXVA2016/hex_polyA_V1_40m/qbof_up6_surf.inp
376K	RDXVA2016/hex_polyA_V1_40m/qbof_dwn2_surf.inp
376K	RDXVA2016/hex_polyA_V1_40m/qbof_dwn6_surf.inp
376K	RDXVA2016/hex_polyA_V1_40m/top_2420_surf.inp
376K	RDXVA2016/hex_polyA_V1_40m/top_2400_surf.inp
6.9M	RDXVA2016/hex_polyA_V1_40m/stack_nowell.gmv
21M	RDXVA2016/hex_polyA_V1_40m/view_stack_well.gmv
8.0K	RDXVA2016/hex_polyA_V1_40m/view_stack.gmvattr
4.0K	RDXVA2016/hex_polyA_V1_40m/stack_v1.lgi
28K	RDXVA2016/hex_polyA_V1_40m/.stack.lgi.swp
376K	RDXVA2016/hex_polyA_V1_40m/topo_dwn30_surf.inp
376K	RDXVA2016/hex_polyA_V1_40m/qbof_up20_surf.inp
376K	RDXVA2016/hex_polyA_V1_40m/G2_Qbof_surf_fix.inp
360K	RDXVA2016/hex_polyA_V1_40m/G2_Qbof_surf_fix.gmv
376K	RDXVA2016/hex_polyA_V1_40m/qbof_up10_surf.inp
376K	RDXVA2016/hex_polyA_V1_40m/qbof_up25_surf.inp
376K	RDXVA2016/hex_polyA_V1_40m/qbof_dwn10_surf.inp
376K	RDXVA2016/hex_polyA_V1_40m/qbof_dwn25_surf.inp
184K	RDXVA2016/hex_polyA_V1_40m/tmp.out
8.0K	RDXVA2016/hex_polyA_V1_40m/tmp.log
4.0K	RDXVA2016/hex_polyA_V1_40m/gmvrc
8.0K	RDXVA2016/hex_polyA_V1_40m/stack_wpu_ymax.gmvattr
8.0K	RDXVA2016/hex_polyA_V1_40m/stack_wpu_yCDV9i.gmvattr
8.0K	RDXVA2016/hex_polyA_V1_40m/stack_wpu_yR25.gmvattr
8.0K	RDXVA2016/hex_polyA_V1_40m/stack_wpu_ymin.gmvattr
8.0K	RDXVA2016/hex_polyA_V1_40m/stack_wpu_west.gmvattr
14M	RDXVA2016/hex_polyA_V1_40m/view_tet_wells.gmv
8.0K	RDXVA2016/hex_polyA_V1_40m/tet_wtrtop.gmvattr
4.0K	RDXVA2016/hex_polyA_V1_40m/wells2avs_lines_all.awk
4.0K	RDXVA2016/hex_polyA_V1_40m/wells2avs_toppoint.awk
12K	RDXVA2016/hex_polyA_V1_40m/wells_lines_all.gmv
12K	RDXVA2016/hex_polyA_V1_40m/wells_lines_all.inp
4.0K	RDXVA2016/hex_polyA_V1_40m/wells_toppts.inp
4.0K	RDXVA2016/hex_polyA_V1_40m/wells.txt
12K	RDXVA2016/hex_polyA_V1_40m/README.txt
1019M	RDXVA2016/hex_polyA_V1_40m
224K	RDXVA2016/data/images/wells_all.rgb
208K	RDXVA2016/data/images/wells_TA16.rgb
4.0K	RDXVA2016/data/images/gallery.html
20K	RDXVA2016/data/images/wells_all.png
16K	RDXVA2016/data/images/wells_all_TN.PNG
12K	RDXVA2016/data/images/wells_TA16.png
8.0K	RDXVA2016/data/images/wells_TA16_TN.PNG
440K	RDXVA2016/data/images/wtr_both.rgb
656K	RDXVA2016/data/images/wtr_both_boxA.rgb
936K	RDXVA2016/data/images/wtr_old_boxA.rgb
812K	RDXVA2016/data/images/wtr_a2014_boxA.rgb
936K	RDXVA2016/data/images/wtr_a2014_boxA_m.rgb
204K	RDXVA2016/data/images/polygons_dan.rgb
204K	RDXVA2016/data/images/polygons_w_wells.rgb
996K	RDXVA2016/data/images/view_topo_3x.rgb
588K	RDXVA2016/data/images/view_wtr_3x.rgb
676K	RDXVA2016/data/images/view_all_3x_side.rgb
8.0K	RDXVA2016/data/images/polygons_dan.png
12K	RDXVA2016/data/images/polygons_dan_TN.PNG
28K	RDXVA2016/data/images/polygons_w_wells.png
12K	RDXVA2016/data/images/polygons_w_wells_TN.PNG
320K	RDXVA2016/data/images/view_all_3x_side.png
48K	RDXVA2016/data/images/view_all_3x_side_TN.PNG
576K	RDXVA2016/data/images/view_topo_3x.png
84K	RDXVA2016/data/images/view_topo_3x_TN.PNG
192K	RDXVA2016/data/images/view_wtr_3x.png
56K	RDXVA2016/data/images/view_wtr_3x_TN.PNG
240K	RDXVA2016/data/images/wtr_a2014_boxA_m.png
80K	RDXVA2016/data/images/wtr_a2014_boxA_m_TN.PNG
176K	RDXVA2016/data/images/wtr_a2014_boxA.png
64K	RDXVA2016/data/images/wtr_a2014_boxA_TN.PNG
260K	RDXVA2016/data/images/wtr_both_boxA.png
44K	RDXVA2016/data/images/wtr_both_boxA_TN.PNG
116K	RDXVA2016/data/images/wtr_both.png
36K	RDXVA2016/data/images/wtr_both_TN.PNG
196K	RDXVA2016/data/images/wtr_old_boxA.png
68K	RDXVA2016/data/images/wtr_old_boxA_TN.PNG
9.4M	RDXVA2016/data/images
340K	RDXVA2016/data/CdV-9-1i Well Design justification m.docx
4.0K	RDXVA2016/data/._CdV-9-1i Well Design justification m.docx
4.0K	RDXVA2016/data/data_logs02.tar.gz
4.0K	RDXVA2016/data/._data_logs02.tar.gz
40M	RDXVA2016/data/view_wtr_surfs.gmv
32K	RDXVA2016/data/Rwells_zones_m_ft_2014Aug.dat
16K	RDXVA2016/data/outx3dgen
4.0K	RDXVA2016/data/wells.txt
8.0K	RDXVA2016/data/TA16_zones_m_ft.dat
8.0K	RDXVA2016/data/README.txt
4.0K	RDXVA2016/data/RUNS
4.0K	RDXVA2016/data/logx3dgen
32K	RDXVA2016/data/screens_mysql_20160105.dat
47M	RDXVA2016/data/view_all_pts.gmv
8.0K	RDXVA2016/data/wells_allpts.inp
4.0K	RDXVA2016/data/wells2avs_toppoint.awk
4.0K	RDXVA2016/data/xy2plylines2.awk
16K	RDXVA2016/data/PerchedZonePolygons.zip
4.0K	RDXVA2016/data/._PerchedZonePolygons.zip
4.0K	RDXVA2016/data/data_logs.tar.gz
4.0K	RDXVA2016/data/._data_logs.tar.gz
4.0K	RDXVA2016/data/view_pts.lgi
2.2M	RDXVA2016/data/Drilling Work Plan for R-63i ERID-235924.pdf
4.0K	RDXVA2016/data/._Drilling Work Plan for R-63i ERID-235924.pdf
8.0K	RDXVA2016/data/wtr_both_boxA.gmvattr
4.0K	RDXVA2016/data/wells_toppts.inp
4.0K	RDXVA2016/data/PerchedZonePolygons.sbx
8.0K	RDXVA2016/data/PerchedZonePolygons.shp
8.0K	RDXVA2016/data/PerchedZonePolygons.shp.xml
4.0K	RDXVA2016/data/PerchedZonePolygons.shx
0	RDXVA2016/data/PerchedZonePolygons.cpg
4.0K	RDXVA2016/data/PerchedZonePolygons.dbf
16K	RDXVA2016/data/PerchedZonePolygons.ply
4.0K	RDXVA2016/data/PerchedZonePolygons.prj
4.0K	RDXVA2016/data/PerchedZonePolygons.sbn
8.0K	RDXVA2016/data/polygon_upper_fix.txt
8.0K	RDXVA2016/data/polygon_lower.txt
8.0K	RDXVA2016/data/polygon_upper.txt
12M	RDXVA2016/data/wtr_surf.inp
12K	RDXVA2016/data/polygon_upper.inp
12K	RDXVA2016/data/polygon_lower.inp
4.0K	RDXVA2016/data/polys.lgi
44K	RDXVA2016/data/polygon_upper_m.inp
36K	RDXVA2016/data/polygon_lower_m.inp
28K	RDXVA2016/data/polygons_both_m.gmv
16K	RDXVA2016/data/polys.out.txt
9.1M	RDXVA2016/data/topo_surf.inp
0	RDXVA2016/data/polygons_both_m.gmvF
4.0K	RDXVA2016/data/wells2avs_allpoint.awk
4.0K	RDXVA2016/data/wells2avs_lines_all.awk
4.0K	RDXVA2016/data/merge_all.lgi
3.4M	RDXVA2016/data/merge_all_data.gmv
4.0K	RDXVA2016/data/test.inp
4.0K	RDXVA2016/data/test.gmv
12K	RDXVA2016/data/wells_lines_all.inp
12K	RDXVA2016/data/wells_lines_all.gmv
48K	RDXVA2016/data/poly_fence_upper.gmv
124K	RDXVA2016/data/poly_fence_upper.inp
104K	RDXVA2016/data/polygons_all_m.gmv
8.0K	RDXVA2016/data/merge_all_3x.gmvattr
0	RDXVA2016/data/polygons_all_m.gmvF
8.0K	RDXVA2016/data/merge_all_3x_side.gmvattr
20K	RDXVA2016/data/polygon_upper_m.gmv
16K	RDXVA2016/data/polygon_lower_m.gmv
44K	RDXVA2016/data/poly_fence_lower.gmv
108K	RDXVA2016/data/poly_fence_lower.inp
4.0K	RDXVA2016/data/._ta16source.tgz
4.0K	RDXVA2016/data/._TA_16contaminantrechargezones1.pdf
4.0K	RDXVA2016/data/polys_recharge/README.txt
12K	RDXVA2016/data/polys_recharge/ta16source.tar
4.0K	RDXVA2016/data/polys_recharge/ta16 source01 cdv.bln
4.0K	RDXVA2016/data/polys_recharge/ta16 source02 260pond.bln
4.0K	RDXVA2016/data/polys_recharge/ta16 source03a SSC.bln
4.0K	RDXVA2016/data/polys_recharge/ta16 source03b SSC.bln
4.0K	RDXVA2016/data/polys_recharge/ta16 source04a 90pond.bln
4.0K	RDXVA2016/data/polys_recharge/ta16 source04b 30pond.bln
4.0K	RDXVA2016/data/polys_recharge/ta16 source05 flc.bln
4.0K	RDXVA2016/data/polys_recharge/ta16 source06 wc.bln
200K	RDXVA2016/data/polys_recharge/TA_16contaminantrechargezones1.pdf
4.0K	RDXVA2016/data/polys_recharge/ta16_source02_260pond.bln
4.0K	RDXVA2016/data/polys_recharge/ta16_source02_260pond.poly
4.0K	RDXVA2016/data/polys_recharge/ta16_source01_cdv.poly
264K	RDXVA2016/data/polys_recharge
124M	RDXVA2016/data
4.0K	RDXVA2016/2D_polyA_V1.0/RUNS
4.0K	RDXVA2016/2D_polyA_V1.0/mk_quad_surf.lgi
8.0K	RDXVA2016/2D_polyA_V1.0/surf_add_R25.lgi
12K	RDXVA2016/2D_polyA_V1.0/surf_add_wells.lgi
48K	RDXVA2016/2D_polyA_V1.0/outx3dgen
8.0K	RDXVA2016/2D_polyA_V1.0/logx3dgen
784K	RDXVA2016/2D_polyA_V1.0/quad_template_40m.inp
244K	RDXVA2016/2D_polyA_V1.0/quad_template_40m.gmv
260K	RDXVA2016/2D_polyA_V1.0/quad_template_40m_dfield.gmv
156K	RDXVA2016/2D_polyA_V1.0/view_quad_wells.gmv
880K	RDXVA2016/2D_polyA_V1.0/surf_dfield.gmv
680K	RDXVA2016/2D_polyA_V1.0/quad_surf_octree.gmv
480K	RDXVA2016/2D_polyA_V1.0/quad_surf_octree.inp
272K	RDXVA2016/2D_polyA_V1.0/quad_well_pieces.gmv
204K	RDXVA2016/2D_polyA_V1.0/quad_well_pieces.inp
648K	RDXVA2016/2D_polyA_V1.0/quad_surf_wells.gmv
424K	RDXVA2016/2D_polyA_V1.0/quad_surf_wells.inp
92K	RDXVA2016/2D_polyA_V1.0/quad_well_dfield_near.png
36K	RDXVA2016/2D_polyA_V1.0/quad_well_dfield.png
108K	RDXVA2016/2D_polyA_V1.0/quad_surf_40m.gmv
244K	RDXVA2016/2D_polyA_V1.0/quad_surf_40m.inp
48K	RDXVA2016/2D_polyA_V1.0/mk_quad_surf_40m.out.txt
4.0K	RDXVA2016/2D_polyA_V1.0/README.txt
5.6M	RDXVA2016/2D_polyA_V1.0
12K	RDXVA2016/TA16_data/README.txt
4.0K	RDXVA2016/TA16_data/surf_full_wtrs/RUNS
8.0K	RDXVA2016/TA16_data/surf_full_wtrs/merge_perched.lgi
4.0K	RDXVA2016/TA16_data/surf_full_wtrs/stack_wtr_pairs.lgi
4.0K	RDXVA2016/TA16_data/surf_full_wtrs/foreachgmvtoavs.scr
4.0K	RDXVA2016/TA16_data/surf_full_wtrs/link_surfs.scr
4.0K	RDXVA2016/TA16_data/surf_full_wtrs/link_TA16_surfs.scr
4.0K	RDXVA2016/TA16_data/surf_full_wtrs/mk_surfs.scr
8.0K	RDXVA2016/TA16_data/surf_full_wtrs/README.txt
4.0K	RDXVA2016/TA16_data/surf_full_wtrs/clip_pair_iso.mlgi
9.9M	RDXVA2016/TA16_data/surf_full_wtrs/surf_upper2_bottom.inp
9.9M	RDXVA2016/TA16_data/surf_full_wtrs/surf_upper2_top.inp
9.9M	RDXVA2016/TA16_data/surf_full_wtrs/surf_upper4_bottom.inp
9.9M	RDXVA2016/TA16_data/surf_full_wtrs/surf_upper4_top.inp
6.8M	RDXVA2016/TA16_data/surf_full_wtrs/surf_lower_bottom.inp
6.8M	RDXVA2016/TA16_data/surf_full_wtrs/surf_lower_top.inp
4.2M	RDXVA2016/TA16_data/surf_full_wtrs/surf_UPZ1_bottom.inp
4.2M	RDXVA2016/TA16_data/surf_full_wtrs/surf_UPZ1_top.inp
22M	RDXVA2016/TA16_data/surf_full_wtrs/wtr_lower_layers.gmv
8.0K	RDXVA2016/TA16_data/surf_full_wtrs/wtr_lower_stack.gmvattr
4.5M	RDXVA2016/TA16_data/surf_full_wtrs/merge_oldnew_UPZ1top.gmv
16K	RDXVA2016/TA16_data/surf_full_wtrs/wtrs_r25_dan_slice.gmvattr
16K	RDXVA2016/TA16_data/surf_full_wtrs/wtrs_slice_transpar.gmvattr
580K	RDXVA2016/TA16_data/surf_full_wtrs/wtr_stack_lower.gmv
944K	RDXVA2016/TA16_data/surf_full_wtrs/wtr_stack_lower.inp
4.1M	RDXVA2016/TA16_data/surf_full_wtrs/wtr_stack_upper2.gmv
6.9M	RDXVA2016/TA16_data/surf_full_wtrs/wtr_stack_upper2.inp
4.0M	RDXVA2016/TA16_data/surf_full_wtrs/wtr_stack_upper4.gmv
6.7M	RDXVA2016/TA16_data/surf_full_wtrs/wtr_stack_upper4.inp
4.0M	RDXVA2016/TA16_data/surf_full_wtrs/wtr_stack_UPZ1.gmv
6.7M	RDXVA2016/TA16_data/surf_full_wtrs/wtr_stack_UPZ1.inp
8.0K	RDXVA2016/TA16_data/surf_full_wtrs/merge_surfs.lgi
6.8M	RDXVA2016/TA16_data/surf_full_wtrs/merge_UPZ1_topbot.gmv
11M	RDXVA2016/TA16_data/surf_full_wtrs/merge_UPZ2top_Upper4stack.gmv
4.0K	RDXVA2016/TA16_data/surf_full_wtrs/ck_qbof.lgi
4.0K	RDXVA2016/TA16_data/surf_full_wtrs/clip_pair_lower.lgi
4.0K	RDXVA2016/TA16_data/surf_full_wtrs/cropA.lgi
4.0K	RDXVA2016/TA16_data/surf_full_wtrs/stack_new_pairs.lgi
4.3M	RDXVA2016/TA16_data/surf_full_wtrs/merge_UPZ2_Upper4stack.gmv
16K	RDXVA2016/TA16_data/surf_full_wtrs/merge_wtrs.gmvattr
16K	RDXVA2016/TA16_data/surf_full_wtrs/merge_wtrs_view.gmvattr
7.2M	RDXVA2016/TA16_data/surf_full_wtrs/view_horiz_layers.gmv
4.0M	RDXVA2016/TA16_data/surf_full_wtrs/view_new_old_UPZ1.gmv
16M	RDXVA2016/TA16_data/surf_full_wtrs/view_perched_layers.gmv
16M	RDXVA2016/TA16_data/surf_full_wtrs/view_qbofs.gmv
15M	RDXVA2016/TA16_data/surf_full_wtrs/view_stack_wells.gmv
14M	RDXVA2016/TA16_data/surf_full_wtrs/view_stack_wells_trunc.gmv
5.9M	RDXVA2016/TA16_data/surf_full_wtrs/view_surfs.gmv
8.8M	RDXVA2016/TA16_data/surf_full_wtrs/view_waters.gmv
25M	RDXVA2016/TA16_data/surf_full_wtrs/view_waters_qbof.gmv
360K	RDXVA2016/TA16_data/surf_full_wtrs/images/TA16_layers_cut_3x.png
392K	RDXVA2016/TA16_data/surf_full_wtrs/images/TA16_layers_cutb_3x.png
316K	RDXVA2016/TA16_data/surf_full_wtrs/images/TA16_layers_front.png
1.8M	RDXVA2016/TA16_data/surf_full_wtrs/images/TA16_stack_back.png
4.0K	RDXVA2016/TA16_data/surf_full_wtrs/images/._TA16_stack_R25_txt.png
788K	RDXVA2016/TA16_data/surf_full_wtrs/images/3DRDX_lower.rgb
680K	RDXVA2016/TA16_data/surf_full_wtrs/images/3DRDX_lower_R25_cut.rgb
624K	RDXVA2016/TA16_data/surf_full_wtrs/images/3DRDX_upper4_raw.rgb
1.1M	RDXVA2016/TA16_data/surf_full_wtrs/images/TA16_stack_front_3x.png
312K	RDXVA2016/TA16_data/surf_full_wtrs/images/wtrs2_a_3x.png
2.1M	RDXVA2016/TA16_data/surf_full_wtrs/images/TA16_stack_front.png
456K	RDXVA2016/TA16_data/surf_full_wtrs/images/otowi_wells_3x.rgb
516K	RDXVA2016/TA16_data/surf_full_wtrs/images/otowi_wellsb_3x.rgb
796K	RDXVA2016/TA16_data/surf_full_wtrs/images/wtrs4_a_3x.rgb
644K	RDXVA2016/TA16_data/surf_full_wtrs/images/wtrs2_a_3x.rgb
72K	RDXVA2016/TA16_data/surf_full_wtrs/images/wtr_up2_low_3x_TN.PNG
752K	RDXVA2016/TA16_data/surf_full_wtrs/images/wtr_up2_low_3x.rgb
700K	RDXVA2016/TA16_data/surf_full_wtrs/images/wtr_up4_low_3x.rgb
204K	RDXVA2016/TA16_data/surf_full_wtrs/images/wtrs4_dan_slice_CDV9-1i.rgb
60K	RDXVA2016/TA16_data/surf_full_wtrs/images/TA16_stack_R25_3x.png
152K	RDXVA2016/TA16_data/surf_full_wtrs/images/wtrs_2_4_R25_EW_3x.png
260K	RDXVA2016/TA16_data/surf_full_wtrs/images/wtrs2_dan_slice_A.rgb
200K	RDXVA2016/TA16_data/surf_full_wtrs/images/wtrs2_dan_slice_CDV9-1i.rgb
96K	RDXVA2016/TA16_data/surf_full_wtrs/images/wtrs_2_4_R25_NS_3x.png
296K	RDXVA2016/TA16_data/surf_full_wtrs/images/wtrs2_b_3x.png
4.0K	RDXVA2016/TA16_data/surf_full_wtrs/images/._TA16_wtrs_from_dan.png
4.0K	RDXVA2016/TA16_data/surf_full_wtrs/images/._wtrs_dan_slice_A.png
276K	RDXVA2016/TA16_data/surf_full_wtrs/images/wtrs4_dan_slice_A.rgb
264K	RDXVA2016/TA16_data/surf_full_wtrs/images/wtrs2_dan_slice_R25.rgb
260K	RDXVA2016/TA16_data/surf_full_wtrs/images/wtrs4_dan_slice_R25.rgb
56K	RDXVA2016/TA16_data/surf_full_wtrs/images/wtrs2_dan_slice_A.png
32K	RDXVA2016/TA16_data/surf_full_wtrs/images/wtrs2_dan_slice_CDV9-1i.png
60K	RDXVA2016/TA16_data/surf_full_wtrs/images/wtrs2_dan_slice_R25.png
192K	RDXVA2016/TA16_data/surf_full_wtrs/images/wtrs_2_R25_EW_3x.png
256K	RDXVA2016/TA16_data/surf_full_wtrs/images/wtrs_2_R26_3xb.png
300K	RDXVA2016/TA16_data/surf_full_wtrs/images/wtrs_2_R26_3x.png
712K	RDXVA2016/TA16_data/surf_full_wtrs/images/wtrs4_b_3x.rgb
4.0K	RDXVA2016/TA16_data/surf_full_wtrs/images/._wtrs2_dan_slice_R25.png
704K	RDXVA2016/TA16_data/surf_full_wtrs/images/wtrs2_b_3x.rgb
420K	RDXVA2016/TA16_data/surf_full_wtrs/images/wtrs_2_4_R25_NS_3x.rgb
548K	RDXVA2016/TA16_data/surf_full_wtrs/images/wtrs_2_4_R25_EW_3x.rgb
780K	RDXVA2016/TA16_data/surf_full_wtrs/images/wtrs_2_R25_EW_3x.rgb
336K	RDXVA2016/TA16_data/surf_full_wtrs/images/wtrs4_a_3x.png
288K	RDXVA2016/TA16_data/surf_full_wtrs/images/wtrs4_b_3x.png
60K	RDXVA2016/TA16_data/surf_full_wtrs/images/wtrs4_dan_slice_A.png
36K	RDXVA2016/TA16_data/surf_full_wtrs/images/wtrs4_dan_slice_CDV9-1i.png
60K	RDXVA2016/TA16_data/surf_full_wtrs/images/wtrs4_dan_slice_R25.png
592K	RDXVA2016/TA16_data/surf_full_wtrs/images/UPZ2top.rgb
256K	RDXVA2016/TA16_data/surf_full_wtrs/images/wtrs_4_R26_3xb.png
412K	RDXVA2016/TA16_data/surf_full_wtrs/images/CK_UPZ1top.rgb
4.0K	RDXVA2016/TA16_data/surf_full_wtrs/images/._wtrs_2_4_R25_NS_3x.png
4.0K	RDXVA2016/TA16_data/surf_full_wtrs/images/._wtrs_2_4_R25_EW_3x.png
696K	RDXVA2016/TA16_data/surf_full_wtrs/images/wtrs_4_R26_3x.rgb
608K	RDXVA2016/TA16_data/surf_full_wtrs/images/wtrs_2_R26_3x.rgb
540K	RDXVA2016/TA16_data/surf_full_wtrs/images/wtrs_2_R26_3xb.rgb
552K	RDXVA2016/TA16_data/surf_full_wtrs/images/wtrs_4_R26_3xb.rgb
340K	RDXVA2016/TA16_data/surf_full_wtrs/images/wtrs_4_R26_3x.png
380K	RDXVA2016/TA16_data/surf_full_wtrs/images/wtr_up2_low_3x.png
380K	RDXVA2016/TA16_data/surf_full_wtrs/images/wtr_up4_low_3x.png
72K	RDXVA2016/TA16_data/surf_full_wtrs/images/wtr_up4_low_3x_TN.PNG
908K	RDXVA2016/TA16_data/surf_full_wtrs/images/TA16_layers_3x.rgb
604K	RDXVA2016/TA16_data/surf_full_wtrs/images/TA16_layers_back.rgb
696K	RDXVA2016/TA16_data/surf_full_wtrs/images/TA16_layers_front.rgb
720K	RDXVA2016/TA16_data/surf_full_wtrs/images/TA16_layers_back_3x.rgb
828K	RDXVA2016/TA16_data/surf_full_wtrs/images/TA16_layers_cut_3x.rgb
864K	RDXVA2016/TA16_data/surf_full_wtrs/images/TA16_layers_cutb_3x.rgb
212K	RDXVA2016/TA16_data/surf_full_wtrs/images/3DRDX_lower_R25_cut.png
592K	RDXVA2016/TA16_data/surf_full_wtrs/images/Upper4_topbot.rgb
1.9M	RDXVA2016/TA16_data/surf_full_wtrs/images/CK_UPZ1top.png
56K	RDXVA2016/TA16_data/surf_full_wtrs/images/3DRDX_lower_R25_cut_TN.PNG
268K	RDXVA2016/TA16_data/surf_full_wtrs/images/Upper4_topbot.png
64K	RDXVA2016/TA16_data/surf_full_wtrs/images/3DRDX_lower_TN.PNG
100K	RDXVA2016/TA16_data/surf_full_wtrs/images/UPZ2top.png
36K	RDXVA2016/TA16_data/surf_full_wtrs/images/3DRDX_upper4_raw_TN.PNG
1.1M	RDXVA2016/TA16_data/surf_full_wtrs/images/Upper4_clipped.rgb
508K	RDXVA2016/TA16_data/surf_full_wtrs/images/Upper4_clipped.png
96K	RDXVA2016/TA16_data/surf_full_wtrs/images/CK_UPZ1top_TN.PNG
52K	RDXVA2016/TA16_data/surf_full_wtrs/images/otowi_wells_3x_TN.PNG
60K	RDXVA2016/TA16_data/surf_full_wtrs/images/otowi_wellsb_3x_TN.PNG
88K	RDXVA2016/TA16_data/surf_full_wtrs/images/TA16_layers_3x_TN.PNG
72K	RDXVA2016/TA16_data/surf_full_wtrs/images/TA16_layers_back_3x_TN.PNG
68K	RDXVA2016/TA16_data/surf_full_wtrs/images/TA16_layers_back_TN.PNG
88K	RDXVA2016/TA16_data/surf_full_wtrs/images/TA16_layers_cut_3x_TN.PNG
96K	RDXVA2016/TA16_data/surf_full_wtrs/images/TA16_layers_cutb_3x_TN.PNG
68K	RDXVA2016/TA16_data/surf_full_wtrs/images/TA16_layers_front_TN.PNG
120K	RDXVA2016/TA16_data/surf_full_wtrs/images/TA16_stack_back_TN.PNG
80K	RDXVA2016/TA16_data/surf_full_wtrs/images/TA16_stack_front_3x_TN.PNG
132K	RDXVA2016/TA16_data/surf_full_wtrs/images/TA16_stack_front_TN.PNG
248K	RDXVA2016/TA16_data/surf_full_wtrs/images/3DRDX_lower.png
224K	RDXVA2016/TA16_data/surf_full_wtrs/images/3DRDX_upper4_raw.png
204K	RDXVA2016/TA16_data/surf_full_wtrs/images/otowi_wells_3x.png
236K	RDXVA2016/TA16_data/surf_full_wtrs/images/otowi_wellsb_3x.png
408K	RDXVA2016/TA16_data/surf_full_wtrs/images/TA16_layers_3x.png
12K	RDXVA2016/TA16_data/surf_full_wtrs/images/gallery.html
244K	RDXVA2016/TA16_data/surf_full_wtrs/images/TA16_layers_back_3x.png
4.0K	RDXVA2016/TA16_data/surf_full_wtrs/images/._TA16_layers_cut_txt.png
720K	RDXVA2016/TA16_data/surf_full_wtrs/images/TA16_stack_front.rgb
4.0K	RDXVA2016/TA16_data/surf_full_wtrs/images/._TA16_layers_cut_txt2.png
648K	RDXVA2016/TA16_data/surf_full_wtrs/images/TA16_stack_back.rgb
580K	RDXVA2016/TA16_data/surf_full_wtrs/images/TA16_stack_front_3x.rgb
1.8M	RDXVA2016/TA16_data/surf_full_wtrs/images/TA16_stack_R25_3x.rgb
288K	RDXVA2016/TA16_data/surf_full_wtrs/images/TA16_layers_back.png
64K	RDXVA2016/TA16_data/surf_full_wtrs/images/TA16_stack_R25_3x_TN.PNG
104K	RDXVA2016/TA16_data/surf_full_wtrs/images/Upper4_clipped_TN.PNG
52K	RDXVA2016/TA16_data/surf_full_wtrs/images/Upper4_topbot_TN.PNG
80K	RDXVA2016/TA16_data/surf_full_wtrs/images/UPZ2top_TN.PNG
68K	RDXVA2016/TA16_data/surf_full_wtrs/images/wtrs_2_4_R25_EW_3x_TN.PNG
44K	RDXVA2016/TA16_data/surf_full_wtrs/images/wtrs_2_4_R25_NS_3x_TN.PNG
72K	RDXVA2016/TA16_data/surf_full_wtrs/images/wtrs2_a_3x_TN.PNG
68K	RDXVA2016/TA16_data/surf_full_wtrs/images/wtrs2_b_3x_TN.PNG
32K	RDXVA2016/TA16_data/surf_full_wtrs/images/wtrs2_dan_slice_A_TN.PNG
16K	RDXVA2016/TA16_data/surf_full_wtrs/images/wtrs2_dan_slice_CDV9-1i_TN.PNG
20K	RDXVA2016/TA16_data/surf_full_wtrs/images/wtrs2_dan_slice_R25_TN.PNG
76K	RDXVA2016/TA16_data/surf_full_wtrs/images/wtrs_2_R25_EW_3x_TN.PNG
64K	RDXVA2016/TA16_data/surf_full_wtrs/images/wtrs_2_R26_3xb_TN.PNG
64K	RDXVA2016/TA16_data/surf_full_wtrs/images/wtrs_2_R26_3x_TN.PNG
72K	RDXVA2016/TA16_data/surf_full_wtrs/images/wtrs4_a_3x_TN.PNG
68K	RDXVA2016/TA16_data/surf_full_wtrs/images/wtrs4_b_3x_TN.PNG
32K	RDXVA2016/TA16_data/surf_full_wtrs/images/wtrs4_dan_slice_A_TN.PNG
20K	RDXVA2016/TA16_data/surf_full_wtrs/images/wtrs4_dan_slice_CDV9-1i_TN.PNG
20K	RDXVA2016/TA16_data/surf_full_wtrs/images/wtrs4_dan_slice_R25_TN.PNG
64K	RDXVA2016/TA16_data/surf_full_wtrs/images/wtrs_4_R26_3xb_TN.PNG
68K	RDXVA2016/TA16_data/surf_full_wtrs/images/wtrs_4_R26_3x_TN.PNG
41M	RDXVA2016/TA16_data/surf_full_wtrs/images
292M	RDXVA2016/TA16_data/surf_full_wtrs
4.9M	RDXVA2016/TA16_data/TA-16 RDX Groundwater Evaluation.pdf
4.0K	RDXVA2016/TA16_data/._TA-16 RDX Groundwater Evaluation.pdf
68K	RDXVA2016/TA16_data/surf_from_2grds/LPZbot.dat
4.0K	RDXVA2016/TA16_data/surf_from_2grds/RUNS
64K	RDXVA2016/TA16_data/surf_from_2grds/LPZthk.dat
68K	RDXVA2016/TA16_data/surf_from_2grds/LPZtop.dat
3.3M	RDXVA2016/TA16_data/surf_from_2grds/Qbof_G2.dat
3.3M	RDXVA2016/TA16_data/surf_from_2grds/Qbof_G3.dat
4.5M	RDXVA2016/TA16_data/surf_from_2grds/Tvt2Massbot.dat
35M	RDXVA2016/TA16_data/surf_from_2grds/Tvt2MassiveBot.dat
35M	RDXVA2016/TA16_data/surf_from_2grds/Tvt2MassiveTop.dat
4.5M	RDXVA2016/TA16_data/surf_from_2grds/Tvt2Massthk.dat
4.5M	RDXVA2016/TA16_data/surf_from_2grds/Tvt2Masstop.dat
460K	RDXVA2016/TA16_data/surf_from_2grds/UPZ1bot.dat
452K	RDXVA2016/TA16_data/surf_from_2grds/UPZ1thk.dat
460K	RDXVA2016/TA16_data/surf_from_2grds/UPZ1top.dat
448K	RDXVA2016/TA16_data/surf_from_2grds/UPZ2bot.dat
444K	RDXVA2016/TA16_data/surf_from_2grds/UPZ2thk.dat
448K	RDXVA2016/TA16_data/surf_from_2grds/UPZ2top.dat
940K	RDXVA2016/TA16_data/surf_from_2grds/Tvt2MassiveBot_rdx_m.gmv
267M	RDXVA2016/TA16_data/surf_from_2grds/Tvt2MassiveTop_full_ft.inp
2.9M	RDXVA2016/TA16_data/surf_from_2grds/Tvt2MassiveTop_rdx_ft.inp
2.4M	RDXVA2016/TA16_data/surf_from_2grds/Tvt2MassiveTop_rdx_m.inp
940K	RDXVA2016/TA16_data/surf_from_2grds/Tvt2MassiveTop_rdx_m.gmv
35M	RDXVA2016/TA16_data/surf_from_2grds/Tvt2Massthk_full_ft.inp
720K	RDXVA2016/TA16_data/surf_from_2grds/Tvt2Massthk_rdx_ft.inp
572K	RDXVA2016/TA16_data/surf_from_2grds/Tvt2Massthk_rdx_m.inp
232K	RDXVA2016/TA16_data/surf_from_2grds/Tvt2Massthk_rdx_m.gmv
35M	RDXVA2016/TA16_data/surf_from_2grds/Tvt2Masstop_full_ft.inp
720K	RDXVA2016/TA16_data/surf_from_2grds/Tvt2Masstop_rdx_ft.inp
572K	RDXVA2016/TA16_data/surf_from_2grds/Tvt2Masstop_rdx_m.inp
232K	RDXVA2016/TA16_data/surf_from_2grds/Tvt2Masstop_rdx_m.gmv
25M	RDXVA2016/TA16_data/surf_from_2grds/Qbof_G2_full_ft.inp
11M	RDXVA2016/TA16_data/surf_from_2grds/Qbof_G2_rdx_ft.inp
8.4M	RDXVA2016/TA16_data/surf_from_2grds/Qbof_G2_rdx_m.inp
3.3M	RDXVA2016/TA16_data/surf_from_2grds/Qbof_G2_rdx_m.gmv
25M	RDXVA2016/TA16_data/surf_from_2grds/Qbof_G3_full_ft.inp
11M	RDXVA2016/TA16_data/surf_from_2grds/Qbof_G3_rdx_ft.inp
8.4M	RDXVA2016/TA16_data/surf_from_2grds/Qbof_G3_rdx_m.inp
3.3M	RDXVA2016/TA16_data/surf_from_2grds/Qbof_G3_rdx_m.gmv
35M	RDXVA2016/TA16_data/surf_from_2grds/Tvt2Massbot_full_ft.inp
720K	RDXVA2016/TA16_data/surf_from_2grds/Tvt2Massbot_rdx_ft.inp
572K	RDXVA2016/TA16_data/surf_from_2grds/Tvt2Massbot_rdx_m.inp
232K	RDXVA2016/TA16_data/surf_from_2grds/Tvt2Massbot_rdx_m.gmv
267M	RDXVA2016/TA16_data/surf_from_2grds/Tvt2MassiveBot_full_ft.inp
2.9M	RDXVA2016/TA16_data/surf_from_2grds/Tvt2MassiveBot_rdx_ft.inp
2.4M	RDXVA2016/TA16_data/surf_from_2grds/Tvt2MassiveBot_rdx_m.inp
4.0K	RDXVA2016/TA16_data/surf_from_2grds/link_2grd.scr
4.0K	RDXVA2016/TA16_data/surf_from_2grds/run_export.scr
4.0K	RDXVA2016/TA16_data/surf_from_2grds/ev2avs_pts_m.lgi
324K	RDXVA2016/TA16_data/surf_from_2grds/generic_m.inp
92K	RDXVA2016/TA16_data/surf_from_2grds/generic_m.gmv
2.5M	RDXVA2016/TA16_data/surf_from_2grds/UPZ1bot_pts_ft.inp
2.5M	RDXVA2016/TA16_data/surf_from_2grds/UPZ1bot_pts_m.inp
448K	RDXVA2016/TA16_data/surf_from_2grds/top.dat
448K	RDXVA2016/TA16_data/surf_from_2grds/bot.dat
740K	RDXVA2016/TA16_data/surf_from_2grds/merge_UPZ2_pts.gmv
664K	RDXVA2016/TA16_data/surf_from_2grds/UPZ1bot_pts_m.gmv
12K	RDXVA2016/TA16_data/surf_from_2grds/UPZ1bot.out
2.5M	RDXVA2016/TA16_data/surf_from_2grds/UPZ1thk_pts_ft.inp
2.5M	RDXVA2016/TA16_data/surf_from_2grds/UPZ1thk_pts_m.inp
664K	RDXVA2016/TA16_data/surf_from_2grds/UPZ1thk_pts_m.gmv
12K	RDXVA2016/TA16_data/surf_from_2grds/UPZ1thk.out
2.5M	RDXVA2016/TA16_data/surf_from_2grds/UPZ1top_pts_ft.inp
2.5M	RDXVA2016/TA16_data/surf_from_2grds/UPZ1top_pts_m.inp
664K	RDXVA2016/TA16_data/surf_from_2grds/UPZ1top_pts_m.gmv
12K	RDXVA2016/TA16_data/surf_from_2grds/UPZ1top.out
2.4M	RDXVA2016/TA16_data/surf_from_2grds/UPZ2bot_pts_ft.inp
2.4M	RDXVA2016/TA16_data/surf_from_2grds/UPZ2bot_pts_m.inp
12K	RDXVA2016/TA16_data/surf_from_2grds/LPZtop.out
592K	RDXVA2016/TA16_data/surf_from_2grds/UPZ2top.rgb
4.0K	RDXVA2016/TA16_data/surf_from_2grds/run_perched_pts.scr
19M	RDXVA2016/TA16_data/surf_from_2grds/CK_G2_new_old.gmv
648K	RDXVA2016/TA16_data/surf_from_2grds/UPZ2bot_pts_m.gmv
12K	RDXVA2016/TA16_data/surf_from_2grds/UPZ2bot.out
2.4M	RDXVA2016/TA16_data/surf_from_2grds/UPZ2thk_pts_ft.inp
2.4M	RDXVA2016/TA16_data/surf_from_2grds/UPZ2thk_pts_m.inp
648K	RDXVA2016/TA16_data/surf_from_2grds/UPZ2thk_pts_m.gmv
12K	RDXVA2016/TA16_data/surf_from_2grds/UPZ2thk.out
2.4M	RDXVA2016/TA16_data/surf_from_2grds/UPZ2top_pts_ft.inp
2.4M	RDXVA2016/TA16_data/surf_from_2grds/UPZ2top_pts_m.inp
648K	RDXVA2016/TA16_data/surf_from_2grds/UPZ2top_pts_m.gmv
12K	RDXVA2016/TA16_data/surf_from_2grds/UPZ2top.out
324K	RDXVA2016/TA16_data/surf_from_2grds/LPZbot_pts_ft.inp
324K	RDXVA2016/TA16_data/surf_from_2grds/LPZbot_pts_m.inp
92K	RDXVA2016/TA16_data/surf_from_2grds/LPZbot_pts_m.gmv
12K	RDXVA2016/TA16_data/surf_from_2grds/LPZbot.out
324K	RDXVA2016/TA16_data/surf_from_2grds/LPZthk_pts_ft.inp
324K	RDXVA2016/TA16_data/surf_from_2grds/LPZthk_pts_m.inp
92K	RDXVA2016/TA16_data/surf_from_2grds/LPZthk_pts_m.gmv
12K	RDXVA2016/TA16_data/surf_from_2grds/LPZthk.out
324K	RDXVA2016/TA16_data/surf_from_2grds/LPZtop_pts_ft.inp
324K	RDXVA2016/TA16_data/surf_from_2grds/LPZtop_pts_m.inp
92K	RDXVA2016/TA16_data/surf_from_2grds/LPZtop_pts_m.gmv
68K	RDXVA2016/TA16_data/surf_from_2grds/generic.dat
4.0K	RDXVA2016/TA16_data/surf_from_2grds/ev2avs_rdx.lgi
8.0K	RDXVA2016/TA16_data/surf_from_2grds/outx3dgen
4.0K	RDXVA2016/TA16_data/surf_from_2grds/run_layers_rdx.scr
4.0K	RDXVA2016/TA16_data/surf_from_2grds/logx3dgen
324K	RDXVA2016/TA16_data/surf_from_2grds/generic_ft.inp
4.1M	RDXVA2016/TA16_data/surf_from_2grds/generic_crop_ft.inp
3.3M	RDXVA2016/TA16_data/surf_from_2grds/generic_crop_m.inp
1.3M	RDXVA2016/TA16_data/surf_from_2grds/generic_crop_m.gmv
4.0K	RDXVA2016/TA16_data/surf_from_2grds/README.txt
902M	RDXVA2016/TA16_data/surf_from_2grds
28K	RDXVA2016/TA16_data/CdV Alluvial Polygon Vertices.xlsx
4.0K	RDXVA2016/TA16_data/._CdV Alluvial Polygon Vertices.xlsx
4.0K	RDXVA2016/TA16_data/CdV_polygon_ft.dat
4.0K	RDXVA2016/TA16_data/CdV_polygon_m.dat
1.2G	RDXVA2016/TA16_data
4.0K	RDXVA2016/RDXVA2016_dirs.txt
76K	RDXVA2016/RDXVA2016_files.txt
8.0K	RDXVA2016/README.txt
16K	RDXVA2016/.README.txt.swp
452K	RDXVA2016/web_pages/V1_wp2_vor_backc.png
476K	RDXVA2016/web_pages/V1_wp2_vor_back.png
376K	RDXVA2016/web_pages/V1_wp2_vor_front.png
52K	RDXVA2016/web_pages/V1_wp2_x490633.png
44K	RDXVA2016/web_pages/V1_wp2_x491193.png
40K	RDXVA2016/web_pages/V1_wp2_x491313d.png
120K	RDXVA2016/web_pages/V1_wp2_x491715d.png
116K	RDXVA2016/web_pages/V1_wp2_x492065d.png
40K	RDXVA2016/web_pages/V1_wp2_x492150.png
40K	RDXVA2016/web_pages/V1_wp2_x492300.png
308K	RDXVA2016/web_pages/V1_wtrt_east.png
316K	RDXVA2016/web_pages/V1_wtrt_ne.png
320K	RDXVA2016/web_pages/V1_wtrt_north.png
316K	RDXVA2016/web_pages/V1_wtrt_south.png
244K	RDXVA2016/web_pages/V1_wtrt_west.png
172K	RDXVA2016/web_pages/Vproto_wp2_box_in.png
84K	RDXVA2016/web_pages/Vproto_wp2_box_out.png
112K	RDXVA2016/web_pages/Vproto_wp2_evol_back.png
184K	RDXVA2016/web_pages/Vproto_wp2_evol_front.png
224K	RDXVA2016/web_pages/Vproto_wp2_intr_zbot.png
240K	RDXVA2016/web_pages/Vproto_wp2_intr_ztop.png
56K	RDXVA2016/web_pages/tet_zonn_wtrs2_3x.png
52K	RDXVA2016/web_pages/tet_zonn_wtrs2_mat_3x.png
264K	RDXVA2016/web_pages/tet_mat_raw.png
152K	RDXVA2016/web_pages/tet_mat_top.png
172K	RDXVA2016/web_pages/tet_wtrtable_top.png
216K	RDXVA2016/web_pages/tet_zone_01_top.png
36K	RDXVA2016/web_pages/tet_zone_02_bottom.png
128K	RDXVA2016/web_pages/tet_zone_03_west.png
188K	RDXVA2016/web_pages/tet_zone_04_south.png
232K	RDXVA2016/web_pages/tet_wtrs_window.png
248K	RDXVA2016/web_pages/mat_Qbof_top_NW.png
236K	RDXVA2016/web_pages/mat_Qbof_top.png
216K	RDXVA2016/web_pages/mat_Tpf3_top_NW.png
188K	RDXVA2016/web_pages/mat_Tpf3_top.png
16K	RDXVA2016/web_pages/mesh.html
288K	RDXVA2016/web_pages/tet_a.png
284K	RDXVA2016/web_pages/tet_c.png
92K	RDXVA2016/web_pages/tet_mat10_TPF2.png
12K	RDXVA2016/web_pages/compare.html
176K	RDXVA2016/web_pages/connect_v2b.png
8.0K	RDXVA2016/web_pages/stack.html
2.7M	RDXVA2016/web_pages/V1_sat_cross_3.png
1.6M	RDXVA2016/web_pages/v1_sat_cross_cdv-9-i.png
228K	RDXVA2016/web_pages/layers_all_back_3x.png
184K	RDXVA2016/web_pages/hex_mat_back.png
2.0M	RDXVA2016/web_pages/v1_sat_cross_r25.png
172K	RDXVA2016/web_pages/layers_all_front_3x.png
152K	RDXVA2016/web_pages/V1_wp2_box_in.png
92K	RDXVA2016/web_pages/V1_wp2_box_out.png
140K	RDXVA2016/web_pages/layers_upper_back_3x.png
120K	RDXVA2016/web_pages/V1_wp2_evol_backc.png
108K	RDXVA2016/web_pages/V1_wp2_evol_back.png
204K	RDXVA2016/web_pages/layers_upper_front_3x.png
188K	RDXVA2016/web_pages/hex_mat_front.png
168K	RDXVA2016/web_pages/V1_wp2_evol_front.png
3.4M	RDXVA2016/web_pages/stack_back_wpu2.png
212K	RDXVA2016/web_pages/V1_wp2_intr_zbot.png
232K	RDXVA2016/web_pages/V1_wp2_intr_ztop.png
2.4M	RDXVA2016/web_pages/stack_yCDV9-1i_wpu2.png
316K	RDXVA2016/web_pages/saturation_cross_cdv-9-i.JPG
1.6M	RDXVA2016/web_pages/saturation_cross_cdv-9-i.png
388K	RDXVA2016/web_pages/saturation_cross_r25.JPG
2.0M	RDXVA2016/web_pages/saturation_cross_r25.png
236K	RDXVA2016/web_pages/tet_zonn43_blw_west.png
260K	RDXVA2016/web_pages/tet_zonn44_blw_south.png
224K	RDXVA2016/web_pages/tet_zonn45_blw_east.png
216K	RDXVA2016/web_pages/tet_zonn46_blw_north.png
260K	RDXVA2016/web_pages/tet_zonn47_blw_ne.png
56K	RDXVA2016/web_pages/tet_zonn_LPZ1_intr_a.png
220K	RDXVA2016/web_pages/tet_zonn_LPZ1_intr_z.png
44K	RDXVA2016/web_pages/tet_zonn_LPZ1_71_reset.png
92K	RDXVA2016/web_pages/tet_zonn_UPZ2_addNW2_back.png
144K	RDXVA2016/web_pages/tet_zone_05_east.png
196K	RDXVA2016/web_pages/tet_zone_06_north.png
164K	RDXVA2016/web_pages/tet_zone_07_north_east.png
80K	RDXVA2016/web_pages/tet_zone_41_wtr_blw_a.png
252K	RDXVA2016/web_pages/tet_zone_41_wtr_blw.png
200K	RDXVA2016/web_pages/tet_zonn102_canyon_.png
32K	RDXVA2016/web_pages/tet_zonn42_blw_bot.png
192K	RDXVA2016/web_pages/Xtet_zonn_UPZ2_addNW_box.png
136K	RDXVA2016/web_pages/Xtet_zonn_UPZ2_addNW.png
296K	RDXVA2016/web_pages/Xtet_zonn_UPZ2_nw_back.png
244K	RDXVA2016/web_pages/Xtet_zonn_UPZ2_nw_front.png
196K	RDXVA2016/web_pages/stack_ymin_wpu1.png
100K	RDXVA2016/web_pages/stack_ymin_wpu_all.png
152K	RDXVA2016/web_pages/stack_yR25_wpu1.png
92K	RDXVA2016/web_pages/stack_yR25_wpu_all.png
8.0K	RDXVA2016/web_pages/view_wpsurfs.html
176K	RDXVA2016/web_pages/stack_NSR25_wpu_all.png
80K	RDXVA2016/web_pages/stack_NSR26_wpu_all.png
72K	RDXVA2016/web_pages/Xconnect_v1_TN.PNG
84K	RDXVA2016/web_pages/Xconnect_v2_TN.PNG
60K	RDXVA2016/web_pages/XnoUPZ2_pts_back_TN.PNG
96K	RDXVA2016/web_pages/XnoUPZ2_pts_NW_TN.PNG
92K	RDXVA2016/web_pages/XnoUPZ2_pts_west_TN.PNG
64K	RDXVA2016/web_pages/Xreset_UPZ2_pts_otowi_TN.PNG
52K	RDXVA2016/web_pages/Xtet_zonn_UPZ2_addNW_box_TN.PNG
56K	RDXVA2016/web_pages/Xtet_zonn_UPZ2_addNW_TN.PNG
48K	RDXVA2016/web_pages/Xtet_zonn_UPZ2_nw_back_TN.PNG
48K	RDXVA2016/web_pages/Xtet_zonn_UPZ2_nw_front_TN.PNG
432K	RDXVA2016/web_pages/Vproto_wp2_vor_back.png
368K	RDXVA2016/web_pages/Vproto_wp2_vor_front.png
44K	RDXVA2016/web_pages/Vproto_wp2_x490631.png
40K	RDXVA2016/web_pages/Vproto_wp2_x4911313.png
124K	RDXVA2016/web_pages/Vproto_wp2_x4911715.png
44K	RDXVA2016/web_pages/Vproto_wp2_x491193.png
120K	RDXVA2016/web_pages/Vproto_wp2_x492086.png
40K	RDXVA2016/web_pages/Vproto_wp2_x492150.png
36K	RDXVA2016/web_pages/Vproto_wp2_x492300.png
360K	RDXVA2016/web_pages/Vproto_wtrt_east.png
364K	RDXVA2016/web_pages/Vproto_wtrt_ne.png
360K	RDXVA2016/web_pages/Vproto_wtrt_north.png
368K	RDXVA2016/web_pages/Vproto_wtrt_south.png
300K	RDXVA2016/web_pages/Vproto_wtrt_west.png
36K	RDXVA2016/web_pages/tet_iso_wtrs2.png
84K	RDXVA2016/web_pages/tet_iso_wtrs2_top.png
92K	RDXVA2016/web_pages/tet_mat_raw_TN.PNG
40K	RDXVA2016/web_pages/tet_mat_top_TN.PNG
16K	RDXVA2016/web_pages/tet_wtrs_window_TN.PNG
88K	RDXVA2016/web_pages/tet_wtrs_win_Nslice_TN.PNG
84K	RDXVA2016/web_pages/tet_wtrs_win_Sslice_TN.PNG
104K	RDXVA2016/web_pages/tet_wtrs_yCDV91i_2x_TN.PNG
64K	RDXVA2016/web_pages/tet_wtrs_ymax_2x_TN.PNG
96K	RDXVA2016/web_pages/tet_wtrs_ymin_2x_TN.PNG
100K	RDXVA2016/web_pages/tet_wtrs_yR25_2x_TN.PNG
40K	RDXVA2016/web_pages/tet_wtrtable_top_TN.PNG
64K	RDXVA2016/web_pages/tet_zone_01_top_TN.PNG
40K	RDXVA2016/web_pages/tet_zone_02_bottom_TN.PNG
52K	RDXVA2016/web_pages/tet_zone_03_west_TN.PNG
60K	RDXVA2016/web_pages/tet_zone_04_south_TN.PNG
52K	RDXVA2016/web_pages/tet_zone_05_east_TN.PNG
60K	RDXVA2016/web_pages/tet_zone_06_north_TN.PNG
56K	RDXVA2016/web_pages/tet_zone_07_north_east_TN.PNG
52K	RDXVA2016/web_pages/tet_zone_41_wtr_blw_a_TN.PNG
76K	RDXVA2016/web_pages/tet_zone_41_wtr_blw_TN.PNG
64K	RDXVA2016/web_pages/tet_zonn102_canyon__TN.PNG
36K	RDXVA2016/web_pages/tet_zonn42_blw_bot_TN.PNG
260K	RDXVA2016/web_pages/tet_mat23_QBT3.png
64K	RDXVA2016/web_pages/tet_mat24_QBT3t.png
32K	RDXVA2016/web_pages/tet_mat25_QBT4.png
96K	RDXVA2016/web_pages/tet_mat27_G2.png
108K	RDXVA2016/web_pages/tet_mat28_G3.png
40K	RDXVA2016/web_pages/tet_mat_otowi.png
36K	RDXVA2016/web_pages/tet_mat_puye.png
964K	RDXVA2016/web_pages/pts_for_Tpf3s_window.png
76K	RDXVA2016/web_pages/pts_wtrs_window.png
12K	RDXVA2016/web_pages/README.txt
688K	RDXVA2016/web_pages/tet_zonn_UPZ2_intrb_z.png
804K	RDXVA2016/web_pages/tet_zonn_UPZ2_intr_z.png
204K	RDXVA2016/web_pages/tet_zonn_UPZ2_yCDV91i.png
108K	RDXVA2016/web_pages/tet_zonn_UPZ2_yCDV91i_S.png
92K	RDXVA2016/web_pages/tet_zonn_UPZ2_ymax.png
60K	RDXVA2016/web_pages/tet_zonn_UPZ2_ymax_S.png
296K	RDXVA2016/web_pages/tet_zonn_UPZ2_ymin.png
68K	RDXVA2016/web_pages/stack_ymax_wpu1.png
20K	RDXVA2016/web_pages/stack_ymax_wpu_all.png
180K	RDXVA2016/web_pages/tet_zonn_LPZ1_71.png
228K	RDXVA2016/web_pages/tet_zonn_UPZ1_61.png
60K	RDXVA2016/web_pages/V1_wp2_x491715d_TN.PNG
60K	RDXVA2016/web_pages/V1_wp2_x492065d_TN.PNG
12K	RDXVA2016/web_pages/V1_wp2_x492150_TN.PNG
12K	RDXVA2016/web_pages/V1_wp2_x492300_TN.PNG
64K	RDXVA2016/web_pages/V1_wtrt_east_TN.PNG
68K	RDXVA2016/web_pages/V1_wtrt_ne_TN.PNG
76K	RDXVA2016/web_pages/V1_wtrt_north_TN.PNG
68K	RDXVA2016/web_pages/V1_wtrt_south_TN.PNG
52K	RDXVA2016/web_pages/V1_wtrt_west_TN.PNG
44K	RDXVA2016/web_pages/Vproto_wp2_box_in_TN.PNG
16K	RDXVA2016/web_pages/Vproto_wp2_box_out_TN.PNG
32K	RDXVA2016/web_pages/Vproto_wp2_evol_back_TN.PNG
48K	RDXVA2016/web_pages/Vproto_wp2_evol_front_TN.PNG
36K	RDXVA2016/web_pages/Vproto_wp2_intr_zbot_TN.PNG
36K	RDXVA2016/web_pages/Vproto_wp2_intr_ztop_TN.PNG
52K	RDXVA2016/web_pages/Vproto_wp2_vor_back_TN.PNG
52K	RDXVA2016/web_pages/Vproto_wp2_vor_front_TN.PNG
12K	RDXVA2016/web_pages/Vproto_wp2_x490631_TN.PNG
12K	RDXVA2016/web_pages/Vproto_wp2_x4911313_TN.PNG
56K	RDXVA2016/web_pages/Vproto_wp2_x4911715_TN.PNG
12K	RDXVA2016/web_pages/Vproto_wp2_x491193_TN.PNG
104K	RDXVA2016/web_pages/tet_zonn_UPZ2_addNW2_front.png
192K	RDXVA2016/web_pages/tet_zonn_UPZ2_addNW2.png
148K	RDXVA2016/web_pages/tet_zonn_UPZ2_addNW2_pts.png
188K	RDXVA2016/web_pages/tet_zonn_UPZ2_addNW2_zmat.png
188K	RDXVA2016/web_pages/stack_back_wpu1.png
152K	RDXVA2016/web_pages/stack_surfs_wpu1.png
112K	RDXVA2016/web_pages/stack_surfs_wpu2.png
108K	RDXVA2016/web_pages/stack_west_wpu_allb.png
68K	RDXVA2016/web_pages/stack_west_wpu_all.png
112K	RDXVA2016/web_pages/stack_yCDV9-1i_wpu1.png
80K	RDXVA2016/web_pages/stack_yCDV9-1i_wpu_all.png
228K	RDXVA2016/web_pages/tet_zonn_UPZ2_61.png
40K	RDXVA2016/web_pages/tet_zonn_wtr1_mat_3x.png
80K	RDXVA2016/web_pages/stack_back_wpu1_TN.PNG
96K	RDXVA2016/web_pages/stack_back_wpu2_TN.PNG
92K	RDXVA2016/web_pages/stack_NSR25_wpu_all_TN.PNG
52K	RDXVA2016/web_pages/stack_NSR26_wpu_all_TN.PNG
96K	RDXVA2016/web_pages/stack_NSR63_wpu_all_TN.PNG
36K	RDXVA2016/web_pages/stack_surfs_wpu1_TN.PNG
36K	RDXVA2016/web_pages/stack_surfs_wpu2_TN.PNG
40K	RDXVA2016/web_pages/stack_west_wpu_allb_TN.PNG
32K	RDXVA2016/web_pages/stack_west_wpu_all_TN.PNG
76K	RDXVA2016/web_pages/stack_yCDV9-1i_wpu1_TN.PNG
84K	RDXVA2016/web_pages/stack_yCDV9-1i_wpu2_TN.PNG
40K	RDXVA2016/web_pages/stack_yCDV9-1i_wpu_all_TN.PNG
56K	RDXVA2016/web_pages/stack_ymax_wpu1_TN.PNG
68K	RDXVA2016/web_pages/stack_ymax_wpu2_TN.PNG
20K	RDXVA2016/web_pages/stack_ymax_wpu_all_TN.PNG
88K	RDXVA2016/web_pages/stack_ymin_wpu1_TN.PNG
80K	RDXVA2016/web_pages/stack_ymin_wpu2_TN.PNG
44K	RDXVA2016/web_pages/stack_ymin_wpu_all_TN.PNG
88K	RDXVA2016/web_pages/stack_yR25_wpu1_TN.PNG
84K	RDXVA2016/web_pages/stack_yR25_wpu2_TN.PNG
44K	RDXVA2016/web_pages/stack_yR25_wpu_all_TN.PNG
84K	RDXVA2016/web_pages/tet_zonn43_blw_west_TN.PNG
80K	RDXVA2016/web_pages/tet_zonn44_blw_south_TN.PNG
72K	RDXVA2016/web_pages/tet_zonn45_blw_east_TN.PNG
72K	RDXVA2016/web_pages/tet_zonn46_blw_north_TN.PNG
84K	RDXVA2016/web_pages/tet_zonn47_blw_ne_TN.PNG
68K	RDXVA2016/web_pages/tet_zonn_LPZ1_71_TN.PNG
20K	RDXVA2016/web_pages/tet_zonn_LPZ1_71_reset_TN.PNG
36K	RDXVA2016/web_pages/tet_zonn_LPZ1_intr_a_TN.PNG
44K	RDXVA2016/web_pages/tet_zonn_LPZ1_intr_z_TN.PNG
72K	RDXVA2016/web_pages/tet_zonn_UPZ1_61_TN.PNG
64K	RDXVA2016/web_pages/tet_zonn_UPZ1_intr_a_TN.PNG
52K	RDXVA2016/web_pages/tet_zonn_UPZ1_intr_z_TN.PNG
72K	RDXVA2016/web_pages/tet_zonn_UPZ2_61_TN.PNG
40K	RDXVA2016/web_pages/tet_zonn_UPZ2_addNW2_back_TN.PNG
48K	RDXVA2016/web_pages/tet_zonn_UPZ2_addNW2_front_TN.PNG
80K	RDXVA2016/web_pages/tet_zonn_UPZ2_addNW2_TN.PNG
52K	RDXVA2016/web_pages/tet_zonn_UPZ2_addNW2_pts_TN.PNG
56K	RDXVA2016/web_pages/tet_zonn_UPZ2_addNW2_zmat_TN.PNG
68K	RDXVA2016/web_pages/tet_zonn_UPZ2_clip_TN.PNG
108K	RDXVA2016/web_pages/tet_zonn_UPZ2_intr_3x_TN.PNG
68K	RDXVA2016/web_pages/tet_zonn_UPZ2_intr_a_TN.PNG
80K	RDXVA2016/web_pages/XnoUPZ2_pts_back.png
220K	RDXVA2016/web_pages/XnoUPZ2_pts_NW.png
160K	RDXVA2016/web_pages/XnoUPZ2_pts_west.png
140K	RDXVA2016/web_pages/Xreset_UPZ2_pts_otowi.png
192K	RDXVA2016/web_pages/tet_zonn_UPZ1_intr_a.png
772K	RDXVA2016/web_pages/tet_zonn_UPZ1_intr_z.png
180K	RDXVA2016/web_pages/tet_zonn_UPZ2_clip.png
792K	RDXVA2016/web_pages/tet_zonn_UPZ2_intr_3x.png
192K	RDXVA2016/web_pages/tet_zonn_UPZ2_intr_a.png
612K	RDXVA2016/web_pages/tet_zonn_UPZ2_intrb_a.png
868K	RDXVA2016/web_pages/tet_zonn_UPZ2_intrb_b.png
100K	RDXVA2016/web_pages/tet_mat11_TVT2.png
104K	RDXVA2016/web_pages/tet_mat14_TPF3.png
128K	RDXVA2016/web_pages/tet_mat16_QBOF.png
224K	RDXVA2016/web_pages/tet_mat17_19_QCT_QBT1G.png
80K	RDXVA2016/web_pages/tet_mat17_QCT.png
52K	RDXVA2016/web_pages/tet_mat21_QBT1v.png
244K	RDXVA2016/web_pages/tet_mat22_QBT2.png
32K	RDXVA2016/web_pages/tet_iso_wtrs1.png
84K	RDXVA2016/web_pages/tet_iso_wtrs1_top.png
52K	RDXVA2016/web_pages/connect_v2b_TN.PNG
72K	RDXVA2016/web_pages/hex_mat_back_TN.PNG
76K	RDXVA2016/web_pages/hex_mat_front_TN.PNG
92K	RDXVA2016/web_pages/layers_all_back_3x_TN.PNG
52K	RDXVA2016/web_pages/layers_all_front_3x_TN.PNG
44K	RDXVA2016/web_pages/layers_upper_back_3x_TN.PNG
48K	RDXVA2016/web_pages/layers_upper_front_3x_TN.PNG
76K	RDXVA2016/web_pages/mat_Qbof_top_NW_TN.PNG
72K	RDXVA2016/web_pages/mat_Qbof_top_TN.PNG
88K	RDXVA2016/web_pages/mat_Tpf3_top_NW_TN.PNG
76K	RDXVA2016/web_pages/mat_Tpf3_top_TN.PNG
48K	RDXVA2016/web_pages/pts_for_Tpf3s_window_TN.PNG
44K	RDXVA2016/web_pages/pts_wtrs_window_TN.PNG
12K	RDXVA2016/web_pages/qual_needles_TN.PNG
56K	RDXVA2016/web_pages/qual_slivers_TN.PNG
92K	RDXVA2016/web_pages/qual_tet_vol_TN.PNG
80K	RDXVA2016/web_pages/qual_tet_vol_small_TN.PNG
12K	RDXVA2016/web_pages/qual_wedges_TN.PNG
80K	RDXVA2016/web_pages/saturation_cross_3_TN.PNG
48K	RDXVA2016/web_pages/saturation_cross_cdv-9-i_TN.PNG
56K	RDXVA2016/web_pages/saturation_cross_r25_TN.PNG
3.4M	RDXVA2016/web_pages/tet_wtrs_win_Nslice.png
3.2M	RDXVA2016/web_pages/tet_wtrs_win_Sslice.png
52K	RDXVA2016/web_pages/tet_zonn_UPZ2_intrb_a_TN.PNG
80K	RDXVA2016/web_pages/tet_zonn_UPZ2_intrb_b_TN.PNG
52K	RDXVA2016/web_pages/tet_zonn_UPZ2_intrb_z_TN.PNG
56K	RDXVA2016/web_pages/tet_zonn_UPZ2_intr_z_TN.PNG
64K	RDXVA2016/web_pages/tet_zonn_UPZ2_Tpf3s_TN.PNG
84K	RDXVA2016/web_pages/tet_zonn_UPZ2_yCDV91i_TN.PNG
60K	RDXVA2016/web_pages/tet_zonn_UPZ2_yCDV91i_S_TN.PNG
60K	RDXVA2016/web_pages/tet_zonn_UPZ2_ymax_TN.PNG
44K	RDXVA2016/web_pages/tet_zonn_UPZ2_ymax_S_TN.PNG
84K	RDXVA2016/web_pages/tet_zonn_UPZ2_ymin_TN.PNG
64K	RDXVA2016/web_pages/tet_zonn_UPZ2_ymin_S_TN.PNG
168K	RDXVA2016/web_pages/stack_NSR63_wpu_all.png
80K	RDXVA2016/web_pages/tet_zonn_UPZ2_yR25_TN.PNG
60K	RDXVA2016/web_pages/tet_zonn_UPZ2_yR25_S_TN.PNG
20K	RDXVA2016/web_pages/tet_zonn_wtr1_mat_3x_TN.PNG
52K	RDXVA2016/web_pages/tet_zonn_wtrs2_3x_TN.PNG
36K	RDXVA2016/web_pages/tet_zonn_wtrs2_mat_3x_TN.PNG
80K	RDXVA2016/web_pages/V1_sat_cross_3_TN.PNG
48K	RDXVA2016/web_pages/v1_sat_cross_cdv-9-i_TN.PNG
56K	RDXVA2016/web_pages/v1_sat_cross_r25_TN.PNG
44K	RDXVA2016/web_pages/V1_wp2_box_in_TN.PNG
16K	RDXVA2016/web_pages/V1_wp2_box_out_TN.PNG
32K	RDXVA2016/web_pages/V1_wp2_evol_backc_TN.PNG
36K	RDXVA2016/web_pages/V1_wp2_evol_back_TN.PNG
44K	RDXVA2016/web_pages/V1_wp2_evol_front_TN.PNG
40K	RDXVA2016/web_pages/V1_wp2_intr_zbot_TN.PNG
40K	RDXVA2016/web_pages/V1_wp2_intr_ztop_TN.PNG
60K	RDXVA2016/web_pages/V1_wp2_vor_backc_TN.PNG
64K	RDXVA2016/web_pages/V1_wp2_vor_back_TN.PNG
56K	RDXVA2016/web_pages/V1_wp2_vor_front_TN.PNG
12K	RDXVA2016/web_pages/V1_wp2_x490633_TN.PNG
12K	RDXVA2016/web_pages/V1_wp2_x491193_TN.PNG
12K	RDXVA2016/web_pages/V1_wp2_x491313d_TN.PNG
44K	RDXVA2016/web_pages/qual_needles.png
324K	RDXVA2016/web_pages/qual_slivers.png
3.4M	RDXVA2016/web_pages/qual_tet_vol.png
180K	RDXVA2016/web_pages/qual_tet_vol_small.png
40K	RDXVA2016/web_pages/qual_wedges.png
176K	RDXVA2016/web_pages/tet_wtrs_yCDV91i_2x.png
100K	RDXVA2016/web_pages/tet_wtrs_ymax_2x.png
192K	RDXVA2016/web_pages/tet_wtrs_ymin_2x.png
192K	RDXVA2016/web_pages/tet_wtrs_yR25_2x.png
508K	RDXVA2016/web_pages/saturation_cross_3.JPG
2.7M	RDXVA2016/web_pages/saturation_cross_3.png
132K	RDXVA2016/web_pages/tet_zonn_UPZ2_yR25_S.png
40K	RDXVA2016/web_pages/gallery.html
2.2M	RDXVA2016/web_pages/stack_ymax_wpu2.png
1.9M	RDXVA2016/web_pages/stack_ymin_wpu2.png
2.6M	RDXVA2016/web_pages/stack_yR25_wpu2.png
4.4M	RDXVA2016/web_pages/Xconnect_v1b.png
3.9M	RDXVA2016/web_pages/Xconnect_v1c.png
136K	RDXVA2016/web_pages/Xconnect_v1.png
212K	RDXVA2016/web_pages/Xconnect_v2.png
52K	RDXVA2016/web_pages/Vproto_wp2_x492086_TN.PNG
12K	RDXVA2016/web_pages/Vproto_wp2_x492150_TN.PNG
12K	RDXVA2016/web_pages/Vproto_wp2_x492300_TN.PNG
60K	RDXVA2016/web_pages/Vproto_wtrt_east_TN.PNG
64K	RDXVA2016/web_pages/Vproto_wtrt_ne_TN.PNG
72K	RDXVA2016/web_pages/Vproto_wtrt_north_TN.PNG
64K	RDXVA2016/web_pages/Vproto_wtrt_south_TN.PNG
60K	RDXVA2016/web_pages/Vproto_wtrt_west_TN.PNG
132K	RDXVA2016/web_pages/Xconnect_v1b_TN.PNG
88K	RDXVA2016/web_pages/Xconnect_v1c_TN.PNG
128K	RDXVA2016/web_pages/tet_zonn_UPZ2_Tpf3s.png
172K	RDXVA2016/web_pages/tet_zonn_UPZ2_ymin_S.png
240K	RDXVA2016/web_pages/tet_zonn_UPZ2_yR25.png
72K	RDXVA2016/web_pages/tet_a_TN.PNG
92K	RDXVA2016/web_pages/tet_c_TN.PNG
16K	RDXVA2016/web_pages/tet_iso_wtrs1_TN.PNG
44K	RDXVA2016/web_pages/tet_iso_wtrs1_top_TN.PNG
20K	RDXVA2016/web_pages/tet_iso_wtrs2_TN.PNG
44K	RDXVA2016/web_pages/tet_iso_wtrs2_top_TN.PNG
52K	RDXVA2016/web_pages/tet_mat10_TPF2_TN.PNG
48K	RDXVA2016/web_pages/tet_mat11_TVT2_TN.PNG
64K	RDXVA2016/web_pages/tet_mat14_TPF3_TN.PNG
64K	RDXVA2016/web_pages/tet_mat16_QBOF_TN.PNG
64K	RDXVA2016/web_pages/tet_mat17_19_QCT_QBT1G_TN.PNG
48K	RDXVA2016/web_pages/tet_mat17_QCT_TN.PNG
28K	RDXVA2016/web_pages/tet_mat21_QBT1v_TN.PNG
60K	RDXVA2016/web_pages/tet_mat22_QBT2_TN.PNG
64K	RDXVA2016/web_pages/tet_mat23_QBT3_TN.PNG
32K	RDXVA2016/web_pages/tet_mat24_QBT3t_TN.PNG
16K	RDXVA2016/web_pages/tet_mat25_QBT4_TN.PNG
56K	RDXVA2016/web_pages/tet_mat27_G2_TN.PNG
56K	RDXVA2016/web_pages/tet_mat28_G3_TN.PNG
16K	RDXVA2016/web_pages/tet_mat_otowi_TN.PNG
16K	RDXVA2016/web_pages/tet_mat_puye_TN.PNG
85M	RDXVA2016/web_pages
3.2G	RDXVA2016
